﻿Place,Name,Event,Sex,State,BirthDate,Division,BodyweightKg,WeightClassKg,Squat1Kg,Squat2Kg,Squat3Kg,Best3SquatKg,Bench1Kg,Bench2Kg,Bench3Kg,Best3BenchKg,Deadlift1Kg,Deadlift2Kg,Deadlift3Kg,Best3DeadliftKg,TotalKg,Equipment
DQ,Megg Turner-Tracey,SBD,F,AB,,Open,63.6,69,115,120,-125,120,-75,,,,-145,,,,,Raw
DQ,Derrick Chuong,SBD,M,AB,,Open,101.89,105,285,302.5,310,310,-205,-205,-205,,-285,,,,,Single-ply
DQ,Dylan Amadio,SBD,M,ON,,Juniors,91.7,93,190,-202.5,202.5,202.5,-177.5,-177.5,-177.5,,,,,,,Raw
DQ,Glen Cormier,SBD,M,NL,,Masters 3,92.49,93,-215,-215,-215,,-127.5,,,,-215,,,,,Raw
DQ,Sarah Carmichael,SBD,F,NS,,Masters 1,81.45,84,-125,130,137.5,137.5,60,65,67.5,67.5,-165,-177.5,-177.5,,,Raw
DQ,Troy Hunt,SBD,M,NS,,Sub-Juniors,72.88,74,-157.5,-165,-165,,-87.5,,,,-202.5,,,,,Raw
DQ,Isabelle Aube-Peterkin,SBD,F,ON,,Open,83.5,84,155,162.5,167.5,167.5,92.5,97.5,-102.5,97.5,-182.5,-190,-190,,,Raw
DQ,Colleen McCabe,SBD,F,PE,,Masters 1,97.32,84+,-120,120,-125,120,,,,,,,,,,Raw
3,Sophia Allen,B,F,PE,,Open,94.64,84+,,,,,-30,-35,35,35,,,,,35,Raw
2,Janine Garland,B,F,BC,,Open,77.55,84,,,,,40,-90,-90,40,,,,,40,Single-ply
1,Jill MacFarlane,B,F,PE,,Masters 1,56.45,57,,,,,40,45,47.5,47.5,,,,,47.5,Raw
1,Linda Rousseau,B,F,ON,,Masters 4,78.94,84,,,,,47.5,50,52.5,52.5,,,,,52.5,Raw
1,Patricia Kowal,B,F,BC,,Masters 4,60.67,63,,,,,50,52.5,-55,52.5,,,,,52.5,Raw
1,Simone Lai,B,F,ON,,Open,47.73,52,,,,,50,52.5,55,55,,,,,55,Single-ply
1,Carlie Hornsby,B,F,AB,,Juniors,55.77,57,,,,,50,55,-60,55,,,,,55,Raw
1,Heidi Schraft,B,F,ON,,Masters 3,50.67,52,,,,,47.5,52.5,55,55,,,,,55,Raw
2,Linda McFeeters,B,F,ON,,Masters 3,93.98,84+,,,,,52.5,55,57.5,57.5,,,,,57.5,Raw
1,Arlene van Diepen,B,F,PE,,Masters 3,62.59,63,,,,,60,-65,-65,60,,,,,60,Single-ply
2,Natasha Andrews,B,F,NL,,Sub-Juniors,144.28,84+,,,,,-57.5,57.5,60,60,,,,,60,Raw
1,Jillian Courtney,B,F,PE,,Sub-Juniors,107.13,84+,,,,,52.5,57.5,60,60,,,,,60,Raw
1,Chloe Wong,B,F,ON,,Juniors,42.78,43,,,,,52.5,57.5,62.5,62.5,,,,,62.5,Raw
1,Linda McFeeters,B,F,ON,,Masters 3,93.66,84+,,,,,65,-70,-70,65,,,,,65,Single-ply
1,Margot Croft,B,F,BC,,Masters 3,99.87,84+,,,,,60,65,-67.5,65,,,,,65,Raw
4,Glynnis Powell,B,F,NS,,Masters 1,70.93,76,,,,,60,62.5,65,65,,,,,65,Raw
1,Deb Ellard,B,F,AB,,Masters 3,67.22,69,,,,,57.5,-62.5,65,65,,,,,65,Raw
2,Kimberly Vernon Jarvis,B,F,BC,,Masters 1,61.56,63,,,,,60,62.5,65,65,,,,,65,Raw
1,Shauna Hammer,B,F,BC,,Masters 2,55.76,57,,,,,62.5,65,-67.5,65,,,,,65,Raw
1,Trina Noseworthy,B,F,NL,,Masters 1,66.84,69,,,,,-67.5,67.5,-70,67.5,,,,,67.5,Single-ply
3,Lisa Froude,B,F,NL,,Masters 1,108.4,84+,,,,,60,65,67.5,67.5,,,,,67.5,Raw
4,Annie Crete,B,F,BC,,Open,62.95,63,,,,,62.5,65,67.5,67.5,,,,,67.5,Raw
1,Linda Rousseau,B,F,ON,,Masters 4,80.19,84,,,,,67.5,70,-73.5,70,,,,,70,Single-ply
2,Heather Wolfe,B,F,NS,,Masters 2,67.91,69,,,,,67.5,70,-72.5,70,,,,,70,Raw
1,Frances Manias,B,F,ON,,Masters 2,62.34,63,,,,,65,70,-72.5,70,,,,,70,Raw
1,Heidi Schraft,B,F,ON,,Masters 3,50.64,52,,,,,70,72.5,-78,72.5,,,,,72.5,Single-ply
1,Katelynn Allen,B,F,PE,,Juniors,82.85,84,,,,,65,72.5,-77.5,72.5,,,,,72.5,Raw
1,Janet Loesel Sitar,B,F,MB,,Masters 2,79.56,84,,,,,72.5,-75,-75,72.5,,,,,72.5,Raw
1,Sandra Flowerday-Payne,B,F,ON,,Masters 2,67.53,69,,,,,-70,70,72.5,72.5,,,,,72.5,Raw
2,Jordan Phelps,B,M,BC,,Open,199.17,120+,,,,,75,-277.5,-285,75,,,,,75,Single-ply
1,Zachary Vandenburg,B,M,ON,,Sub-Juniors,52.42,53,,,,,75,-90,-90,75,,,,,75,Raw
2,Lisanne Glavin,B,F,ON,,Masters 2,75.22,76,,,,,65,70,75,75,,,,,75,Raw
1,Teresa Gilman,B,F,BC,,Masters 2,75.19,76,,,,,65,72.5,75,75,,,,,75,Raw
1,Deanne Snell,B,F,NS,,Masters 1,83.97,84,,,,,70,-77.5,77.5,77.5,,,,,77.5,Raw
1,Cynthia Leighton,B,F,BC,,Masters 1,62.41,63,,,,,77.5,-80,,77.5,,,,,77.5,Raw
3,Megg Turner-Tracey,B,F,AB,,Open,61.67,63,,,,,77.5,-82.5,-82.5,77.5,,,,,77.5,Raw
1,David Hrynkow,B,M,MB,,Masters 3,65.5,66,,,,,80,-90,-90,80,,,,,80,Single-ply
5,Kristen Watt,B,F,AB,,Open,79.68,84,,,,,75,80,-85,80,,,,,80,Raw
2,Colleen McCabe,B,F,PE,,Masters 1,97.05,84+,,,,,77.5,80,82.5,82.5,,,,,82.5,Raw
3,Laura Whitty,B,F,NB,,Open,72.9,76,,,,,75,-82.5,82.5,82.5,,,,,82.5,Raw
1,Shauna Hammer,B,F,BC,,Masters 2,56.32,57,,,,,77.5,81,83,83,,,,,83,Single-ply
2,Daniel Royer,B,M,QC,,Masters 3,93.94,105,,,,,85,-90,-90,85,,,,,85,Raw
1,David Hrynkow,B,M,MB,,Masters 3,65.83,66,,,,,85,-90,-90,85,,,,,85,Raw
4,Victoria Iasenzaniro,B,F,AB,,Open,78.52,84,,,,,80,85,-87.5,85,,,,,85,Raw
1,Jennifer Theron,B,F,ON,,Masters 1,68.15,69,,,,,77.5,85,-87.5,85,,,,,85,Raw
6,Lizzy Roberts,B,F,ON,,Open,65.49,69,,,,,80,85,-87.5,85,,,,,85,Raw
1,Janet Loesel Sitar,B,F,MB,,Masters 2,79.34,84,,,,,80,85,87.5,87.5,,,,,87.5,Single-ply
3,Sara Duncan,B,F,MB,,Masters 1,73.39,76,,,,,82.5,87.5,-90,87.5,,,,,87.5,Raw
2,Jilliane Runighan,B,F,PE,,Masters 1,72.37,76,,,,,77.5,82.5,87.5,87.5,,,,,87.5,Raw
2,Teresa Yeung,B,F,ON,,Open,60.46,63,,,,,77.5,82.5,87.5,87.5,,,,,87.5,Raw
1,Linda Burns,B,F,NL,,Masters 2,95.33,84+,,,,,85,90,-100,90,,,,,90,Single-ply
2,Lisanne Glavin,B,F,ON,,Masters 2,74.81,76,,,,,80,85,90,90,,,,,90,Single-ply
3,Erin Matheson,B,F,AB,,Open,83.46,84,,,,,85,90,-92.5,90,,,,,90,Raw
5,Michelle Comber,B,F,ON,,Open,68.76,69,,,,,82.5,87.5,90,90,,,,,90,Raw
4,Victoria Schrapp,B,F,ON,,Open,68.6,69,,,,,85,87.5,90,90,,,,,90,Raw
1,Joanna Rieber,B,F,ON,,Open,50.67,52,,,,,80,85,90,90,,,,,90,Raw
2,Jenny Henty,B,F,SK,,Open,94.25,84+,,,,,87.5,92.5,-95,92.5,,,,,92.5,Raw
1,Eleanor Kelly-Coderre,B,F,BC,,Juniors,73.51,76,,,,,82.5,87.5,92.5,92.5,,,,,92.5,Raw
3,Tamara Perez,B,F,QC,,Open,67.98,69,,,,,87.5,92.5,-95,92.5,,,,,92.5,Raw
1,Myriam Coulombe,B,F,QC,,Open,92.57,84+,,,,,87.5,95,-100,95,,,,,95,Single-ply
2,Neil White,B,M,NL,,Masters 3,71.41,74,,,,,85,92.5,95,95,,,,,95,Raw
2,Meagan Perreault-boutin,B,F,NB,,Open,82.56,84,,,,,-95,95,-97.5,95,,,,,95,Raw
1,Pamela Hodder,B,F,AB,,Masters 1,74.23,76,,,,,90,95,-97,95,,,,,95,Raw
2,Samantha Fung,B,F,AB,,Open,73.39,76,,,,,90,95,-100,95,,,,,95,Raw
2,Emma Zilberman-Vegas,B,F,ON,,Open,65.51,69,,,,,92.5,95,-97.5,95,,,,,95,Raw
2,Daniel Royer,B,M,QC,,Masters 3,93.91,105,,,,,90,97.5,-102.5,97.5,,,,,97.5,Single-ply
3,Robert Truchon,B,M,ON,,Masters 2,85.76,93,,,,,85,92.5,97.5,97.5,,,,,97.5,Raw
1,Pascale Mercier,B,F,QC,,Open,73.58,76,,,,,90,95,97.5,97.5,,,,,97.5,Raw
2,Charlie Banfield,B,M,NL,,Masters 4,124.17,120+,,,,,100,-105,-105,100,,,,,100,Raw
1,Tilman Gallant,B,M,PE,,Masters 4,82.02,83,,,,,100,-110,-110,100,,,,,100,Raw
1,Marc Vézina,B,M,BC,,Masters 3,81.59,83,,,,,100,-107.5,-107.5,100,,,,,100,Raw
2,Sean Vandenburg,B,M,ON,,Masters 1,64.95,66,,,,,90,95,100,100,,,,,100,Raw
1,Sylvie Dubé-Forslund,B,F,QC,,Open,116.67,84+,,,,,100,-105,-110,100,,,,,100,Raw
1,Kayla Casey,B,F,ON,,Open,55.18,57,,,,,95,100,-102.5,100,,,,,100,Raw
1,Janelle Jolicoeur,B,F,MB,,Open,65.64,69,,,,,95,102.5,-105.5,102.5,,,,,102.5,Raw
4,Cameron Gordon,B,M,PE,,Open,77.57,83,,,,,100,105,-110,105,,,,,105,Raw
1,Shannon Terry,B,F,ON,,Masters 2,103.4,84+,,,,,95,-105,105,105,,,,,105,Raw
1,Jillian Sproul,B,F,PE,,Masters 2,74.41,76,,,,,105,107.5,-110,107.5,,,,,107.5,Single-ply
1,Megg Turner-Tracey,B,F,AB,,Open,63.88,69,,,,,-107.5,-107.5,107.5,107.5,,,,,107.5,Single-ply
1,Harry Farnsworth,B,M,ON,,Juniors,58.06,59,,,,,102.5,107.5,-112.5,107.5,,,,,107.5,Raw
3,John Scott Macintyre,B,M,NS,,Masters 2,129.11,120+,,,,,100,110,-117.5,110,,,,,110,Raw
1,Stephen Seney,B,M,NS,,Masters 1,102.69,105,,,,,100,105,110,110,,,,,110,Raw
1,John Quinton,B,M,BC,,Masters 3,142.72,120+,,,,,105,112.5,-120,112.5,,,,,112.5,Raw
1,Donald Peters,B,M,NB,,Masters 4,102.88,105,,,,,105,112.5,-115,112.5,,,,,112.5,Raw
1,Don Cormier,B,M,NL,,Masters 4,86.91,93,,,,,107.5,112.5,-117.5,112.5,,,,,112.5,Raw
1,Terry Young,B,M,NL,,Masters 4,134.22,120+,,,,,105,110,115,115,,,,,115,Raw
1,Ron Kilpatrick,B,M,ON,,Masters 3,103.77,105,,,,,107.5,115,-120,115,,,,,115,Raw
1,Lukas Crocker,B,M,NB,,Sub-Juniors,91.75,93,,,,,100,107.5,115,115,,,,,115,Raw
1,Pete Williams,B,M,BC,,Masters 1,65.66,66,,,,,110,115,,115,,,,,115,Raw
1,Sophie Desroches,B,F,QC,,Open,62.8,63,,,,,107.5,112.5,116,116,,,,,116,Raw
1,Tilman Gallant,B,M,PE,,Masters 4,81.98,83,,,,,-120,-120,120,120,,,,,120,Single-ply
1,Marc Vézina,B,M,BC,,Masters 3,81.7,83,,,,,-110,110,120,120,,,,,120,Single-ply
1,Hayward Young,B,M,NL,,Masters 4,118.39,120,,,,,110,120,-125,120,,,,,120,Raw
1,Curtis Howden,B,M,AB,,Masters 1,73,74,,,,,115,120,-125,120,,,,,120,Raw
1,Kayla Casey,B,F,ON,,Open,55.68,57,,,,,107.5,115,120,120,,,,,120,Single-ply
1,Maria Taccone,B,F,ON,,Masters 1,100.14,84+,,,,,115,120.5,-121,120.5,,,,,120.5,Raw
2,Roy Conrad,B,M,NS,,Masters 2,120.35,120+,,,,,110,117.5,122.5,122.5,,,,,122.5,Raw
1,Stephen Flemming,B,M,PE,,Masters 3,92.36,93,,,,,115,122.5,125,125,,,,,125,Raw
2,R. Tyler McPhail,B,M,BC,,Masters 2,92.01,93,,,,,125,-132.5,-132.5,125,,,,,125,Raw
2,Matthew Miller,B,M,NS,,Masters 1,81.38,83,,,,,117.5,122.5,125,125,,,,,125,Raw
1,Chris Fudge,B,M,ON,,Masters 1,76.17,83,,,,,117.5,122.5,125,125,,,,,125,Raw
1,Gary Lacoursiere,B,M,ON,,Masters 2,73.19,74,,,,,125,-139,-139,125,,,,,125,Raw
2,Rikizo Tamaki,B,M,ON,,Juniors,65.46,66,,,,,112.5,117.5,125,125,,,,,125,Raw
1,Réjean Gauvreau,B,M,QC,,Masters 3,72.01,74,,,,,125,-127.5,129.5,129.5,,,,,129.5,Raw
1,Nick Doelman,B,M,ON,,Masters 2,118.62,120,,,,,120,125,130,130,,,,,130,Raw
1,Danielle Philibert,B,F,NB,,Open,82.04,84,,,,,125,130,-135,130,,,,,130,Raw
1,Clinton Dougan,SBD,M,PE,,Youth 3,42.39,44,32.5,40,50,50,22.5,-25,28,28,45,52.5,-60,52.5,130.5,Raw
1,Pamela Hodder,B,F,AB,,Masters 1,74.27,76,,,,,-125,125,132.5,132.5,,,,,132.5,Single-ply
1,Nick Doelman,B,M,ON,,Masters 2,119.02,120,,,,,115,-137.5,137.5,137.5,,,,,137.5,Single-ply
1,Shiek Ali,B,M,NS,,Masters 2,82.29,83,,,,,125,132.5,137.5,137.5,,,,,137.5,Single-ply
2,Brian Colbourne,B,M,AB,,Masters 2,81.33,83,,,,,135,140,-145,140,,,,,140,Raw
4,Dan Marion,B,M,ON,,Open,72.9,74,,,,,140,-145,-145,140,,,,,140,Raw
1,Adrian Cheung,B,M,ON,,Juniors,65.01,66,,,,,135,-140,140,140,,,,,140,Raw
1,Richard Tamaki,B,M,ON,,Masters 2,88.66,93,,,,,135,142.5,-147.5,142.5,,,,,142.5,Raw
1,Shiek Ali,B,M,NS,,Masters 2,82.32,83,,,,,130,137.5,142.5,142.5,,,,,142.5,Raw
3,Jeremy Klaus,B,M,BC,,Open,79.09,83,,,,,135,140,142.5,142.5,,,,,142.5,Raw
1,Pascale Mercier,B,F,QC,,Open,74.15,76,,,,,137.5,-142.5,142.5,142.5,,,,,142.5,Single-ply
2,Brent Wheeler,B,M,NL,,Masters 1,168.17,120+,,,,,140,145,-150,145,,,,,145,Raw
1,Gary Lacoursiere,B,M,ON,,Masters 2,73.33,74,,,,,145,-155,-155,145,,,,,145,Single-ply
1,Tyler Ollech,B,M,BC,,Juniors,73.11,74,,,,,125,-135,145,145,,,,,145,Raw
4,Jordan Phelps,B,M,BC,,Open,198.17,120+,,,,,150,-177.5,-177.5,150,,,,,150,Raw
1,Stephen Little,B,M,NL,,Masters 2,101.67,105,,,,,142.5,150,-152.5,150,,,,,150,Raw
1,Stephen Flemming,B,M,PE,,Masters 3,92.18,93,,,,,145,150,155,155,,,,,155,Single-ply
13,Sophia Allen,SBD,F,PE,,Open,95.1,84+,-35,42.5,45,45,30,35,-37.5,35,55,65,77.5,77.5,157.5,Raw
1,John Quinton,B,M,BC,,Masters 3,144.07,120+,,,,,75,-155,160,160,,,,,160,Single-ply
1,Ron Kilpatrick,B,M,ON,,Masters 3,103.82,105,,,,,150,155,160,160,,,,,160,Single-ply
2,Douglas Mansell,B,M,BC,,Masters 1,120,120,,,,,142.5,152.5,160,160,,,,,160,Raw
3,Loc Nguyen #2,B,M,QC,,Open,72.63,74,,,,,152.5,162.5,-170,162.5,,,,,162.5,Raw
1,Anson Chew,B,M,BC,,Open,65.64,66,,,,,-147.5,152.5,162.5,162.5,,,,,162.5,Raw
2,Alexandre Jolicoeur,B,M,QC,,Open,86.08,93,,,,,155,165,-170,165,,,,,165,Raw
2,Karl Racine-Gravel,B,M,QC,,Juniors,81.25,83,,,,,155,165,-172.5,165,,,,,165,Raw
2,Patrick Stadler,B,M,NB,,Open,78.34,83,,,,,157.5,162.5,165,165,,,,,165,Raw
2,Stephen Cascioli,B,M,BC,,Open,73.55,74,,,,,155,165,-172.5,165,,,,,165,Raw
1,Tung Hsuan Yen,B,M,BC,,Juniors,82.39,83,,,,,157.5,167.5,-175,167.5,,,,,167.5,Raw
1,Dillon Schram,B,M,AB,,Sub-Juniors,117.28,120,,,,,160,170,-181,170,,,,,170,Raw
1,Matthew Fotty,B,M,AB,,Masters 1,116.11,120,,,,,162.5,170,-175,170,,,,,170,Raw
2,Nathan Tarantola,B,M,ON,,Juniors,104.46,105,,,,,170,-177.5,-180,170,,,,,170,Raw
1,Noah Tremblett,B,M,ON,,Juniors,115.15,120,,,,,165,172.5,-180,172.5,,,,,172.5,Raw
1,Nicolas Magier Morin,B,M,QC,,Open,92.7,93,,,,,170,175,-220,175,,,,,175,Single-ply
1,Frédérick Gamache,B,M,QC,,Open,73.55,74,,,,,165,170,175,175,,,,,175,Raw
1,Ryan MacLellan,B,M,BC,,Open,82.62,83,,,,,165,175,180,180,,,,,180,Raw
3,Cody Brennan,B,M,NL,,Open,127.92,120+,,,,,175,-182.5,182.5,182.5,,,,,182.5,Raw
2,Patrick Stadler,B,M,NB,,Open,79.92,83,,,,,175,185,-192.5,185,,,,,185,Single-ply
1,Mehar Bhogal,B,M,BC,,Open,73.77,74,,,,,185,-195.5,-195.5,185,,,,,185,Single-ply
2,Rhoderick Printemps,B,M,ON,,Open,98,105,,,,,175,185,-195,185,,,,,185,Raw
17,Payton Dicks,SBD,F,NS,,Open,71.31,76,-60,60,-70,60,35,37.5,-42.5,37.5,75,85,90,90,187.5,Raw
1,Nico Seamans,B,M,NB,,Juniors,104.17,105,,,,,180,190,-197.5,190,,,,,190,Raw
2,Jimmy Willard,B,M,QC,,Open,119.93,120,,,,,195,-202.5,-227.5,195,,,,,195,Single-ply
1,TJ Gear,B,M,NL,,Open,101,105,,,,,185,190,195,195,,,,,195,Raw
1,Steve Snell #1,B,M,NS,,Masters 1,142.93,120+,,,,,185,197.5,-205,197.5,,,,,197.5,Raw
2,Debbie Northover,SBD,F,NL,,Masters 3,61.7,63,-55,55,60,60,37.5,40,42.5,42.5,85,90,97.5,97.5,200,Raw
2,Erika St. Pierre,SBD,F,ON,,Sub-Juniors,61.73,63,67.5,75,-80,75,40,42.5,-45,42.5,77.5,85,-90,85,202.5,Raw
3,Todd Wood,B,M,AB,,Open,117.84,120,,,,,195,205,-210,205,,,,,205,Raw
1,Khashayar Farzam,B,M,ON,,Open,90.97,93,,,,,195,205,-210,205,,,,,205,Raw
1,Monica Ma,SBD,F,BC,,Masters 3,42.96,47,65,70,75,75,30,32.5,35,35,90,95,97.5,97.5,207.5,Raw
2,Jason Klaus,B,M,BC,,Open,169.85,120+,,,,,210,-222.5,-222.5,210,,,,,210,Raw
2,Jonathan Cognac,B,M,ON,,Open,117.41,120,,,,,207.5,212.5,217.5,217.5,,,,,217.5,Raw
2,Heidi Schraft,SBD,F,ON,,Masters 3,50.61,52,60,65,70,70,47.5,52.5,55,55,87.5,95,-100,95,220,Raw
1,Mikayla Drullette,SBD,F,SK,,Sub-Juniors,63.63,69,60,65,70,70,40,42.5,45,45,85,97.5,107.5,107.5,222.5,Raw
1,Majid Farzin,B,M,ON,,Open,78.5,83,,,,,224,-225,,224,,,,,224,Single-ply
1,Martin Desbiens,B,M,QC,,Masters 2,146.12,120+,,,,,227.5,-237.5,-237.5,227.5,,,,,227.5,Raw
1,Garrett Cartwright-Bentley,B,M,ON,,Open,140.64,120+,,,,,210,220,227.5,227.5,,,,,227.5,Raw
1,Ed Dufour,B,M,BC,,Masters 2,104.1,105,,,,,70,220,229,229,,,,,229,Single-ply
1,Rhaea Stinn,B,F,SK,,Open,83.7,84,,,,,210,217.5,229,229,,,,,229,Single-ply
2,Steve Snell #1,B,M,NS,,Masters 1,144.84,120+,,,,,240,-262.5,-300,240,,,,,240,Single-ply
4,Dennis Monchamp,SBD,M,BC,,Open,57.73,59,105,-115,-120,105,65,70,75,75,65,,,65,245,Raw
3,Laine Vandriel,SBD,F,MB,,Sub-Juniors,63,63,80,85,-87.5,85,52.5,55,57.5,57.5,90,102.5,105,105,247.5,Raw
3,Terri Johnston,SBD,F,ON,,Masters 2,60.96,63,80,85,-92.5,85,45,47.5,-50,47.5,105,115,117.5,117.5,250,Raw
1,Maureen Rea,SBD,F,BC,,Masters 3,56.24,57,77.5,85,-90,85,45,47.5,-50,47.5,105,112.5,117.5,117.5,250,Raw
3,Susan Blackmun,SBD,F,NB,,Masters 3,85.14,84+,-87.5,90,95,95,45,50,-55,50,92.5,102.5,107.5,107.5,252.5,Raw
3,Tennyson Webb,SBD,M,SK,,Sub-Juniors,90.55,93,70,-72.5,-75,70,107.5,115,-120,115,75,,,75,260,Raw
2,Emi Garzitto,SBD,F,BC,,Masters 3,64.41,69,92.5,-100,-100,92.5,52.5,55,57.5,57.5,102.5,110,-117.5,110,260,Raw
2,Brian Chuong,B,M,AB,,Open,104.09,105,,,,,-260,260,-272.5,260,,,,,260,Single-ply
1,Leunard Gervalla,B,M,ON,,Open,116.7,120,,,,,240,252.5,260,260,,,,,260,Raw
3,Rebekah Lee,SBD,F,NL,,Sub-Juniors,83.52,84,85,100,105,105,45,50,55,55,95,105,-115,105,265,Raw
1,Samuel Glover,SBD,M,ON,,Youth 3,74.43,83,82.5,90,97.5,97.5,65,70,-75,70,85,95,100,100,267.5,Raw
2,Tara Donovan,SBD,F,QC,,Masters 2,61.51,63,70,80,85,85,57.5,60,62.5,62.5,105,115,122.5,122.5,270,Raw
6,Alicia Cheung,SBD,F,ON,,Open,46.36,47,80,85,90,90,45,47.5,-50,47.5,125,132.5,-137.5,132.5,270,Raw
1,Charlie Caron,B,M,QC,,Open,103.41,105,,,,,262.5,270,-283,270,,,,,270,Single-ply
2,Louise Beard,SBD,F,ON,,Masters 3,74.24,76,85,87.5,92.5,92.5,42.5,45,50,50,125,127.5,132.5,132.5,275,Raw
1,Deb Ellard,SBD,F,AB,,Masters 3,68.01,69,80,87.5,95,95,60,65,67.5,67.5,105,112.5,-117.5,112.5,275,Raw
1,John MacDonald #1,B,M,PE,,Masters 1,131.63,120+,,,,,260,275,-287.5,275,,,,,275,Single-ply
2,Jillian Courtney,SBD,F,PE,,Sub-Juniors,107.28,84+,90,100,105,105,57.5,60,62.5,62.5,100,110,115,115,282.5,Raw
2,Anne Lefebvre,SBD,F,ON,,Masters 2,74.65,76,97.5,107.5,-112.5,107.5,67.5,-72.5,-72.5,67.5,110,-120,-125,110,285,Raw
5,Emma Kairys,SBD,F,ON,,Juniors,55.13,57,90,-95,95,95,62.5,65,-67.5,65,117.5,125,-127.5,125,285,Raw
1,Jonathan Cognac,B,M,ON,,Open,118.63,120,,,,,275,285,-302.5,285,,,,,285,Single-ply
1,Linda Rousseau,SBD,F,ON,,Masters 4,79.76,84,100,107,111,111,47.5,50,52.5,52.5,110,120,125,125,288.5,Raw
1,Ethan MacDonald,SBD,M,PE,,Youth 3,54.4,59,80,97,-108,97,50,57.5,60,60,115,125,132.5,132.5,289.5,Raw
1,Jayne Egan,SBD,F,ON,,Masters 3,50.83,52,95,100,-105,100,55,57.5,60,60,120.5,125,130,130,290,Raw
2,Heather Ayles,SBD,F,PE,,Masters 2,56.88,57,100,105,-110,105,62.5,65,67.5,67.5,115,120,-125,120,292.5,Raw
1,Shauna Hammer,SBD,F,BC,,Masters 2,56,57,85,90,95,95,62.5,65,-67.5,65,115,125,132.5,132.5,292.5,Raw
9,Phil Brown,SBD,M,NS,,Open,63.73,66,90,100,,100,55,57.5,,57.5,130,140,,140,297.5,Raw
3,Tracy Hillaby,SBD,F,NS,,Masters 2,82.08,84,-97.5,97.5,100,100,52.5,57.5,-60,57.5,132.5,140,-150,140,297.5,Raw
5,Felicia Jiang,SBD,F,ON,,Open,46.29,47,107.5,110,-112.5,110,57.5,60,-62.5,60,112.5,120,127.5,127.5,297.5,Raw
4,Alison Mercer,SBD,F,NL,,Masters 2,102.76,84+,-112.5,112.5,122.5,122.5,45,47.5,50,50,115,122.5,127.5,127.5,300,Raw
1,Teresa Oldenburger,SBD,F,AB,,Masters 2,67.62,69,110,115,120,120,55,-57.5,57.5,57.5,112.5,122.5,127.5,127.5,305,Raw
4,Shaina Sagar,SBD,F,MB,,Juniors,55.31,57,105,-112.5,-112.5,105,50,55,57.5,57.5,130,137.5,142.5,142.5,305,Raw
2,Margot Croft,SBD,F,BC,,Masters 3,99.79,84+,102.5,110,115,115,57.5,-62.5,62.5,62.5,125,132.5,-137.5,132.5,310,Raw
14,Mei Lin Yu,SBD,F,ON,,Open,55.09,57,107.5,112.5,-117.5,112.5,60,65,67.5,67.5,130,-135,-135,130,310,Raw
1,Fran Harris,SBD,F,NB,,Masters 3,62.7,63,100,105,111,111,62.5,67.5,-71,67.5,127.5,135,-144,135,313.5,Raw
2,Jessie Rivard,SBD,F,MB,,Sub-Juniors,81,84,117.5,-125,125,125,50,-55,-55,50,127.5,140,-150,140,315,Raw
5,Krystal Hachey,SBD,F,ON,,Masters 1,68.11,69,102.5,112.5,117.5,117.5,57.5,62.5,-65,62.5,127.5,135,-140,135,315,Raw
4,Christilyn Arjona,SBD,F,AB,,Open,45.32,47,-92.5,97.5,102.5,102.5,65,67.5,70,70,127.5,135,142.5,142.5,315,Raw
1,Maria Saldana,SBD,F,NS,,Sub-Juniors,74.66,76,117.5,122.5,-130,122.5,67.5,72.5,75,75,110,115,120,120,317.5,Raw
13,Caryn Kwai-Pun,SBD,F,ON,,Open,53.88,57,105,112.5,-115,112.5,55,-57.5,-57.5,55,140,150,-160,150,317.5,Raw
4,Laura Cullen,SBD,F,NS,,Masters 1,81.84,84,112.5,-120,-125,112.5,62.5,65,67.5,67.5,132.5,142.5,-152.5,142.5,322.5,Raw
10,Makaela Leeder,SBD,F,ON,,Juniors,62.7,63,105,-110,110,110,65,70,-72.5,70,125,135,142.5,142.5,322.5,Raw
9,Ma Michaella San Juan,SBD,F,MB,,Juniors,62.14,63,100,107.5,115,115,60,65,-67.5,65,125,135,142.5,142.5,322.5,Raw
4,Patricia Belley,SBD,F,QC,,Masters 1,68.7,69,125,-132.5,-132.5,125,62.5,65,67.5,67.5,122.5,132.5,-137.5,132.5,325,Raw
12,Lubna El Lawand,SBD,F,ON,,Open,56.39,57,105,110,115,115,62.5,65,67.5,67.5,135,142.5,-152.5,142.5,325,Raw
11,Faith Bautista,SBD,F,ON,,Open,55.5,57,107.5,112.5,115,115,55,57.5,60,60,150,-157.5,-157.5,150,325,Raw
1,Natasha Andrews,SBD,F,NL,,Sub-Juniors,144.36,84+,125,132.5,142.5,142.5,57.5,60,-65,60,105,115,125,125,327.5,Raw
3,Vicki Leas,SBD,F,SK,,Masters 1,80.82,84,100,107.5,115,115,67.5,-70,-70,67.5,130,140,145,145,327.5,Raw
3,Lauren Graham,SBD,F,AB,,Masters 1,61.69,63,110,115,120,120,65,67.5,-70,67.5,130,135,140,140,327.5,Raw
1,Stan Goss,SBD,M,ON,,Masters 4,73.57,74,110,-121,-121,110,76.5,81,-82.5,81,137.5,-151,-151,137.5,328.5,Raw
1,Anna Allebone,SBD,F,NB,,Masters 3,72.34,76,125,132,-136,132,55,-57.5,57.5,57.5,130,140,-143,140,329.5,Raw
10,Jiezl Sim,SBD,F,MB,,Open,56.87,57,115,120,-122.5,120,60,65,67.5,67.5,132.5,142.5,-152.5,142.5,330,Raw
3,Catherine Nguyen,SBD,F,BC,,Open,46.84,47,105,107.5,110,110,70,72.5,75,75,140,-145,145,145,330,Raw
7,Glynnis Powell,SBD,F,NS,,Masters 1,70.15,76,120,-125,127.5,127.5,60,62.5,-65,62.5,132.5,137.5,142.5,142.5,332.5,Raw
9,Vashti Bautista,SBD,F,ON,,Open,56.21,57,115,122.5,127.5,127.5,55,57.5,60,60,137.5,145,-150,145,332.5,Raw
5,Shaila Baquiran,SBD,F,ON,,Open,51.53,52,110,117.5,125,125,55,57.5,-60,57.5,132.5,142.5,150,150,332.5,Raw
2,Brenda Hunter,SBD,F,MB,,Masters 2,81.03,84,-120,120,-135,120,57.5,-62.5,-62.5,57.5,140,152.5,157.5,157.5,335,Raw
3,Aida Spires,SBD,F,NS,,Juniors,54.7,57,117.5,125,-130,125,72.5,-75,75,75,125,130,135,135,335,Raw
6,Jilliane Runighan,SBD,F,PE,,Masters 1,72.76,76,110,117.5,122.5,122.5,80,-85,-85,80,117.5,125,135,135,337.5,Raw
1,Simone Lai,SBD,F,ON,,Open,48.58,52,-135,135,142.5,142.5,50,55,60,60,110,125,135,135,337.5,Single-ply
8,Mae Lehmann,SBD,F,ON,,Open,56.51,57,110,115,120,120,65,70,-72.5,70,147.5,-155,-155,147.5,337.5,Raw
8,Nicole Cantelon,SBD,F,ON,,Juniors,61.85,63,120,125,130,130,55,57.5,60,60,140,150,-160,150,340,Raw
1,Cydnee Seneviratne,SBD,F,AB,,Masters 2,61.36,63,95,105,107.5,107.5,65,70,72.5,72.5,135,150,160,160,340,Raw
4,Holly Knight,SBD,F,NB,,Masters 1,97.11,84+,117.5,-122.5,122.5,122.5,62.5,65,-67.5,65,145,150,155,155,342.5,Raw
2,Kimberly Vernon Jarvis,SBD,F,BC,,Masters 1,62.15,63,110,117.5,122.5,122.5,67.5,70,-72.5,70,140,150,-160,150,342.5,Raw
18,Melody Russell,SBD,F,ON,,Open,62.03,63,127.5,135,140,140,62.5,67.5,-70,67.5,127.5,135,-140,135,342.5,Raw
1,Sandrine Krans,SBD,F,QC,,Open,54.81,57,120,-125,125,125,-92.5,92.5,-100,92.5,115,122.5,127.5,127.5,345,Single-ply
5,Kelley Kovacs,SBD,F,ON,,Masters 1,73.13,76,115,125,135,135,65,70,75,75,135,-145,-145,135,345,Raw
3,Jeri Munro,SBD,F,PE,,Masters 1,67.83,69,112.5,117.5,122.5,122.5,65,67.5,-70,67.5,137.5,147.5,155,155,345,Raw
7,Brook Bradshaw,SBD,F,MB,,Juniors,62.73,63,135,-137.5,-137.5,135,62.5,65,67.5,67.5,137.5,142.5,-152.5,142.5,345,Raw
1,Brenda Billings,SBD,F,MB,,Masters 3,112.04,84+,130,-143,-143,130,65,67.5,70.5,70.5,140,145,-150,145,345.5,Raw
4,Aileen Smith,SBD,F,MB,,Masters 1,74.83,76,122.5,127.5,-132.5,127.5,70,72.5,-75,72.5,137.5,-147.5,147.5,147.5,347.5,Raw
2,Ainsley Breakenridge,SBD,F,AB,,Juniors,56.71,57,120,127.5,-132.5,127.5,65,67.5,70,70,142.5,150,-155,150,347.5,Raw
4,Britney Augustowich,SBD,F,MB,,Open,51.32,52,107.5,112.5,117.5,117.5,57.5,65,70,70,150,160,-167.5,160,347.5,Raw
17,Andrea Pham,SBD,F,ON,,Open,61.46,63,127.5,132.5,-142.5,132.5,60,65,-70,65,145,152.5,-160,152.5,350,Raw
1,Juliette Étienne Labelle,SBD,F,QC,,Sub-Juniors,82.15,84,125,132.5,-137.5,132.5,55,57.5,60,60,150,160,-165.5,160,352.5,Raw
6,Samantha Van Oosten,SBD,F,ON,,Juniors,62.1,63,122.5,130,-137.5,130,77.5,82.5,87.5,87.5,117.5,125,135,135,352.5,Raw
7,Niloufar Karamatpanah,SBD,F,BC,,Open,56.61,57,117.5,-125,125,125,60,65,-67.5,65,150,162.5,-167.5,162.5,352.5,Raw
26,Cameron Gordon,SBD,M,PE,,Open,77.11,83,105,120,130,130,100,105,-110,105,90,105,120,120,355,Raw
1,Jillian Sproul,SBD,F,PE,,Masters 2,74.14,76,120,127.5,137.5,137.5,67.5,72.5,-75,72.5,132.5,140,145,145,355,Raw
8,Tina Lam,SBD,F,ON,,Juniors,68.42,69,130,137.5,-142.5,137.5,62.5,65,67.5,67.5,150,-157.5,-157.5,150,355,Raw
3,Linda Burns,SBD,F,NL,,Masters 2,95.37,84+,125,-132.5,132.5,132.5,65,70,72.5,72.5,137.5,145,152.5,152.5,357.5,Raw
7,Danielle Tourikian,SBD,F,ON,,Juniors,68.75,69,117.5,122.5,127.5,127.5,77.5,82.5,85,85,137.5,145,-150,145,357.5,Raw
6,Arielle Aitken-Guignard,SBD,F,ON,,Juniors,63.58,69,-120,120,127.5,127.5,62.5,-67.5,67.5,67.5,142.5,150,162.5,162.5,357.5,Raw
3,Mika Chow,SBD,F,BC,,Open,52,52,122.5,130,-135,130,47.5,-52.5,-52.5,47.5,170,177.5,180,180,357.5,Raw
2,Aurélie Nguyen,SBD,F,QC,,Open,46.89,47,115,122.5,-130,122.5,75,80,82.5,82.5,140,152.5,-177.5,152.5,357.5,Raw
1,Cynthia Leighton,SBD,F,BC,,Masters 1,62.71,63,120,127.5,-132.5,127.5,80,85,87,87,135,140,145,145,359.5,Raw
21,Tamara Perez,SBD,F,QC,,Open,68.52,69,120,125,132.5,132.5,85,90,-95,90,130,140,-145,140,362.5,Raw
16,Dominique Gelinas,SBD,F,QC,,Open,60.21,63,130,135,-140,135,80,82.5,87.5,87.5,132.5,140,-147.5,140,362.5,Raw
1,Joy Edralin,SBD,F,ON,,Juniors,51.97,52,127.5,-132.5,-132.5,127.5,65,70,-72.5,70,155,160,165,165,362.5,Raw
3,Amy Hudson #3,SBD,F,NS,,Masters 1,94.15,84+,122.5,132.5,140,140,-62.5,-65,65,65,140,152.5,160,160,365,Raw
20,Annabelle Rouleau,SBD,F,QC,,Open,68.29,69,107.5,115,120,120,72.5,77.5,-80,77.5,150,160,167.5,167.5,365,Raw
19,Maria Rendell,SBD,F,NL,,Open,67.85,69,132.5,-137.5,137.5,137.5,70,75,80,80,140,147.5,-152.5,147.5,365,Raw
1,Neha Uppin,SBD,F,BC,,Juniors,56.39,57,135,140,142.5,142.5,60,65,-70,65,150,-160,160,160,367.5,Raw
1,Samuel McConkey,SBD,M,NS,,Sub-Juniors,59.15,66,130,135,140,140,67.5,72.5,75,75,150,155,-157.5,155,370,Raw
18,Leah Vandeburgt,SBD,F,ON,,Open,68.02,69,130,135,137.5,137.5,75,77.5,-80,77.5,150,155,-160,155,370,Raw
2,Crystal Penney,SBD,F,NS,,Masters 1,67.77,69,135,145,147.5,147.5,67.5,72.5,-77.5,72.5,132.5,140,150,150,370,Raw
3,Sara Duncan,SBD,F,MB,,Masters 1,74.2,76,-117.5,117.5,122.5,122.5,77.5,82.5,85,85,147.5,157.5,165,165,372.5,Raw
2,Gillian Goldie,SBD,F,NB,,Masters 1,71.19,76,125,-132.5,132.5,132.5,72.5,-77.5,-77.5,72.5,157.5,162.5,167.5,167.5,372.5,Raw
15,Marie Dianne Irene Bartolome,SBD,F,ON,,Open,62.3,63,130,140,145,145,60,65,67.5,67.5,145,152.5,160,160,372.5,Raw
2,Kim Johnstone,SBD,F,AB,,Masters 1,124.99,84+,147.5,152.5,160,160,62.5,65,70,70,137.5,-142.5,145,145,375,Raw
1,Lindsey Carleton,SBD,F,NB,,Masters 1,68.66,69,130,135,140,140,75,77.5,80,80,147.5,150,155,155,375,Raw
5,Maude St-gelais,SBD,F,QC,,Juniors,65.53,69,130,137.5,142.5,142.5,67.5,72.5,77.5,77.5,140,150,157.5,157.5,377.5,Raw
14,Laura Evans,SBD,F,BC,,Open,62.17,63,125,132.5,137.5,137.5,72.5,80,-85,80,145,152.5,160,160,377.5,Raw
2,Heather Anderson,SBD,F,SK,,Masters 1,81.32,84,135,140,145,145,67.5,72.5,77.5,77.5,142.5,150,157.5,157.5,380,Raw
4,Emmanuelle Clavet,SBD,F,NB,,Juniors,67.98,69,125,132.5,-137.5,132.5,72.5,-77.5,77.5,77.5,157.5,-167.5,170,170,380,Raw
5,Laurel Gollnick,SBD,F,AB,,Juniors,61.83,63,-125,140,150,150,62.5,67.5,72.5,72.5,145,157.5,-165,157.5,380,Raw
13,Karen Ballesteros,SBD,F,NS,,Open,60.7,63,130,137.5,-140,137.5,85,-90,90,90,152.5,-157.5,,152.5,380,Raw
6,Neeki Motabar,SBD,F,ON,,Open,56.48,57,135,142.5,147.5,147.5,72.5,77.5,-80,77.5,142.5,150,155,155,380,Raw
1,Simone Lai,SBD,F,ON,,Open,46.75,47,132.5,137.5,141,141,72.5,77.5,80,80,145,152.5,160,160,381,Raw
2,Peter Allen,SBD,M,NS,,Masters 3,71.9,74,137.5,-142.5,142.5,142.5,85,87.5,-90,87.5,145,152.5,-157.5,152.5,382.5,Raw
1,Kelly Winter,SBD,F,ON,,Masters 1,74.12,76,125,132.5,137.5,137.5,75,80,85,85,150,160,-167.5,160,382.5,Raw
5,Kassandra St-Hilaire,SBD,F,QC,,Juniors,73.7,76,115,125,132.5,132.5,80,85,-90,85,145,155,165,165,382.5,Raw
12,Emilie Arsenault,SBD,F,NB,,Open,61.57,63,132.5,142.5,152.5,152.5,65,-70,70,70,145,155,162.5,162.5,385,Raw
1,Callum Bachorick,SBD,M,SK,,Youth 3,65.97,66,130,140,145,145,60,70,-80,70,157.5,172.5,-182.5,172.5,387.5,Raw
17,Michelle Comber,SBD,F,ON,,Open,68.63,69,132.5,142.5,-145,142.5,82.5,87.5,-90,87.5,157.5,-170,-170,157.5,387.5,Raw
4,Catherine Baril,SBD,F,NB,,Juniors,61.54,63,140,145,150,150,70,75,-80,75,145,155,162.5,162.5,387.5,Raw
16,Kaitlin Armour,SBD,F,NB,,Open,75.97,76,142.5,150,-155,150,70,75,80,80,155,160,-170,160,390,Raw
11,Teresa Yeung,SBD,F,ON,,Open,60.02,63,127.5,137.5,-145,137.5,77.5,85,90,90,147.5,157.5,162.5,162.5,390,Raw
5,Myriam Ravignat,SBD,F,QC,,Open,57,57,132.5,137.5,140,140,70,75,77.5,77.5,162.5,172.5,-177.5,172.5,390,Raw
1,Garrett Cartwright-Bentley,B,M,ON,,Open,139.58,120+,,,,,-380,390,-401.5,390,,,,,390,Single-ply
1,Janet Loesel Sitar,SBD,F,MB,,Masters 2,80.2,84,115,125,132.5,132.5,77.5,82.5,85,85,150,162.5,173.5,173.5,391,Single-ply
1,Phil Brown,SBD,M,NS,,Masters 2,64.03,66,122.5,135,140,140,65,67.5,70,70,162.5,175,182.5,182.5,392.5,Raw
1,Vanessa St-Onge,SBD,F,QC,,Masters 1,83,84,132.5,140,145,145,80,85,90,90,142.5,152.5,157.5,157.5,392.5,Raw
10,Jessica Dong,SBD,F,BC,,Open,61.25,63,130,137.5,142.5,142.5,70,75,-77.5,75,160,167.5,175,175,392.5,Raw
2,Lyubov Minich,SBD,F,ON,,Masters 2,126.57,84+,135,145,155,155,70,72.5,75,75,145,152.5,165,165,395,Raw
1,Donna Bodnar,SBD,F,SK,,Masters 2,111.62,84+,132.5,145,-155,145,62.5,65,67.5,67.5,165,172.5,182.5,182.5,395,Raw
12,Morgan Armour,SBD,F,NB,,Open,83.15,84,145,152.5,-160,152.5,85,90,-95,90,140,155,-160,155,397.5,Raw
4,Kimberly O'Dell,SBD,F,NS,,Juniors,74.36,76,127.5,140,-150,140,80,87.5,-95,87.5,170,-185,-185,170,397.5,Raw
16,Meg Desmond,SBD,F,ON,,Open,68.29,69,150,155,160,160,77.5,-82.5,-85,77.5,150,155,160,160,397.5,Raw
15,Lizzy Roberts,SBD,F,ON,,Open,65.6,69,125,132.5,137.5,137.5,75,80,87.5,87.5,152.5,162.5,172.5,172.5,397.5,Raw
9,Lauren Van Esch,SBD,F,ON,,Open,62.94,63,147.5,155,-160,155,67.5,-72.5,75,75,147.5,157.5,167.5,167.5,397.5,Raw
14,Galilaa Abebe,SBD,F,AB,,Open,68.28,69,130,140,150,150,75,80,85,85,150,157.5,165,165,400,Raw
13,Hannah Muncal,SBD,F,AB,,Open,67.59,69,142.5,150,155,155,67.5,72.5,75,75,150,160,170,170,400,Raw
8,Xiyao Liu,SBD,F,BC,,Open,60.03,63,-130,140,150,150,65,70,75,75,150,165,175,175,400,Raw
4,Yordanos Tessema,SBD,F,ON,,Open,56.94,57,127.5,135,-140,135,80,-85,-85,80,185,-198,-200.5,185,400,Raw
2,Brian Tufeld,SBD,M,BC,,Masters 3,82.44,83,120,127.5,135,135,80,87.5,92.5,92.5,175,-185,-192.5,175,402.5,Raw
3,Haley Hunt,SBD,F,NS,,Juniors,66.24,69,147.5,-155,-155,147.5,82.5,85,87.5,87.5,157.5,162.5,167.5,167.5,402.5,Raw
15,Anmol Ahuja,SBD,F,AB,,Open,75.78,76,147.5,155,-160,155,60,65,67.5,67.5,165,175,182.5,182.5,405,Raw
2,François Cazes,SBD,M,QC,,Masters 2,73.38,74,125,130,135,135,90,95,97.5,97.5,165,175,-185,175,407.5,Raw
11,Laurie Baribeau,SBD,F,QC,,Open,83.87,84,-150,150,155,155,75,77.5,80,80,160,172.5,-182.5,172.5,407.5,Raw
14,Victoria Iasenzaniro,SBD,F,AB,,Open,75.95,76,150,-160,-167.5,150,77.5,82.5,-87.5,82.5,165,175,-177.5,175,407.5,Raw
13,Erin Chiasson,SBD,F,NS,,Open,75.36,76,127.5,135,140,140,100,105,-110,105,152.5,162.5,-167.5,162.5,407.5,Raw
7,Maleeca Hospedales,SBD,F,QC,,Open,62.1,63,132.5,-137.5,140,140,67.5,70,-72.5,70,180,190,197.5,197.5,407.5,Raw
3,McKayla Best,SBD,F,ON,,Juniors,60.06,63,-155,162.5,165.5,165.5,70,75,77.5,77.5,155,165,-177.5,165,408,Raw
1,Andrew Burns,SBD,M,NL,,Masters 3,88.79,93,-140,140,145,145,80,85,90,90,160,170,175,175,410,Raw
2,Cordelia Min,SBD,F,ON,,Juniors,68.4,69,137.5,145,152.5,152.5,82.5,-87.5,87.5,87.5,155,162.5,170,170,410,Raw
12,Samira Amani,SBD,F,QC,,Open,75.38,76,145,155,157.5,157.5,87.5,-92.5,92.5,92.5,162.5,-175,-177.5,162.5,412.5,Raw
12,Isobel D'Iorio,SBD,F,ON,,Open,68.47,69,152.5,-160,-160,152.5,85,90,-92.5,90,-160,165,170,170,412.5,Raw
11,Minette Meronyk,SBD,F,ON,,Open,74.38,76,135,147.5,155,155,75,82.5,87.5,87.5,160,172.5,-182.5,172.5,415,Raw
11,Stephanie Fowler,SBD,F,NL,,Open,68.67,69,140,-150,155,155,80,85,87.5,87.5,150,165,172.5,172.5,415,Raw
6,Allison Shaver,SBD,F,ON,,Open,62.26,63,145,155,-160,155,75,80,-82.5,80,170,180,-185,180,415,Raw
3,Monica Gayot,SBD,F,MB,,Open,56.59,57,150,-157.5,160,160,75,80,82.5,82.5,172.5,-185,-195,172.5,415,Raw
10,Andrea Badger,SBD,F,AB,,Open,83.4,84,150,160,165,165,70,-75,75,75,162.5,172.5,177.5,177.5,417.5,Raw
9,Hanna Dunn,SBD,F,NB,,Open,77,84,160,170,175,175,72.5,77.5,-80,77.5,165,-170,-170,165,417.5,Raw
10,Hannah Streng,SBD,F,ON,,Open,68.8,69,142.5,152.5,160,160,72.5,77.5,82.5,82.5,-157.5,165,175,175,417.5,Raw
5,Natalie Hui,SBD,F,ON,,Open,60.61,63,-127.5,127.5,140,140,90,100,107.5,107.5,135,155,170,170,417.5,Raw
2,Marie Jenevieve Joaquin,SBD,F,BC,,Open,51.54,52,150,157.5,160,160,80,85,87.5,87.5,170,-177.5,-177.5,170,417.5,Raw
1,Marija Graham,SBD,F,ON,,Masters 2,83.61,84,150,160,165.5,165.5,65,67.5,-70,67.5,170,180,186,186,419,Raw
10,Christina Potito,SBD,F,ON,,Open,75.73,76,147.5,155,162.5,162.5,72.5,77.5,82.5,82.5,160,170,175,175,420,Raw
4,Victoria Bickle,SBD,F,ON,,Open,61.42,63,150,160,-167.5,160,80,-85,85,85,165,175,-190,175,420,Raw
2,Cassidy Michaud,SBD,F,NB,,Juniors,61.27,63,-150,150,-157.5,150,100,-110,-110,100,152.5,165,170,170,420,Raw
1,Emmanuelle Tremblay,SBD,F,QC,,Juniors,62.08,63,150,157.5,-162.5,157.5,72.5,77.5,80,80,162.5,175,185,185,422.5,Raw
2,Kayla Casey,SBD,F,ON,,Open,55.85,57,145,150,155,155,95,100,-102.5,100,160,167.5,-177.5,167.5,422.5,Raw
12,Jayde Watson,SBD,F,SK,,Open,118.49,84+,152.5,-160,160,160,65,70,75,75,170,-180,190,190,425,Raw
8,Tori Anholt,SBD,F,SK,,Open,83.02,84,145,-155,-155,145,95,-100,100,100,160,170,180,180,425,Raw
1,Véonic Doré,SBD,F,ON,,Juniors,67.61,69,137.5,147.5,155,155,77.5,85,-87.5,85,167.5,175,185,185,425,Raw
9,Kayla Boisvert,SBD,F,ON,,Open,75.36,76,130,137.5,145,145,75,80,82.5,82.5,175,-187.5,200,200,427.5,Raw
9,Ashley Nearing,SBD,F,ON,,Open,68.01,69,152.5,160,-162.5,160,75,80,82.5,82.5,-167.5,175,185,185,427.5,Raw
11,Kelly Hickey,SBD,F,NB,,Open,121.4,84+,145,160,165,165,92.5,100,-105,100,150,165,-170,165,430,Raw
3,Kayshia MacIsaac,SBD,F,BC,,Juniors,73.82,76,147.5,155,-162.5,155,85,92.5,-95,92.5,165,-175,182.5,182.5,430,Raw
1,Amélie Picher-Plante,SBD,F,QC,,Open,55.27,57,147.5,157.5,160,160,85,90,-92.5,90,167.5,180,-185,180,430,Raw
3,Janelle Jolicoeur,SBD,F,MB,,Open,62.86,63,140,147.5,-155,147.5,95,102.5,107.5,107.5,175,180,-185,180,435,Raw
1,Réjean Talon,SBD,M,QC,,Masters 3,65.23,66,-135,135,145,145,115,117.5,-120,117.5,160,170,175,175,437.5,Raw
8,Kayla Mcmillan,SBD,F,MB,,Open,73.4,76,145,157.5,-165,157.5,85,92.5,-95,92.5,175,187.5,-192.5,187.5,437.5,Raw
7,Caroline Pellerin,SBD,F,ON,,Open,75.67,76,155,162.5,170,170,90,95,-100,95,160,167.5,175,175,440,Raw
2,Isabella Bregliano,SBD,F,AB,,Juniors,72.77,76,145,155,-157.5,155,75,82.5,90,90,180,195,-202.5,195,440,Raw
8,Hayley Gibson,SBD,F,SK,,Open,66.55,69,152.5,160,165,165,90,95,97.5,97.5,162.5,172.5,177.5,177.5,440,Raw
1,Jolene Profit,SBD,F,PE,,Open,82.73,84,172.5,185,190,190,-92.5,-92.5,92.5,92.5,140,152.5,160,160,442.5,Single-ply
1,Catherine Gagné,SBD,F,QC,,Open,51.63,52,155,165,171,171,85,-90,90,90,175,182.5,-185.5,182.5,443.5,Raw
1,Jordan Phelps,SBD,M,BC,,Open,198.66,120+,200,-202.5,-202.5,200,75,-290,-295,75,172.5,-175,,172.5,447.5,Single-ply
10,Bridget Moran,SBD,F,NB,,Open,100.17,84+,140,155,167.5,167.5,87.5,-95,-95,87.5,175,185,195,195,450,Raw
7,Emma Hicks,SBD,F,NB,,Open,83.19,84,155,-175,180,180,100,107.5,-110,107.5,155,162.5,-167.5,162.5,450,Raw
6,Paige Minicola,SBD,F,ON,,Open,79.39,84,160,167.5,-175,167.5,80,85,87.5,87.5,177.5,190,195,195,450,Raw
7,Anik Brodeur,SBD,F,QC,,Open,68.78,69,155,165,170,170,85,90,92.5,92.5,170,182.5,190,190,452.5,Raw
6,Shannon Mutch,SBD,F,ON,,Open,68.7,69,150,162.5,170,170,90,95,97.5,97.5,160,172.5,185,185,452.5,Raw
9,Catherine Rendell,SBD,F,NL,,Open,102.83,84+,155,162.5,175,175,85,90,95,95,155,170,185,185,455,Raw
1,François Cazes,SBD,M,QC,,Masters 2,73.85,74,160,170,177.5,177.5,95,100,105,105,165,175,-182.5,175,457.5,Single-ply
1,Kristine Bayntun,SBD,F,BC,,Masters 1,102.78,84+,-142.5,142.5,150,150,100,105,-107.5,105,185,195,202.5,202.5,457.5,Raw
5,Alex Gristey,SBD,F,ON,,Open,82.05,84,167.5,175,180,180,85,-90,-90,85,175,185,192.5,192.5,457.5,Raw
5,Madison Arnold,SBD,F,BC,,Open,68.92,69,167.5,-175,-175,167.5,85,90,95,95,182.5,195,-210,195,457.5,Raw
2,Cloé St-Hilaire,SBD,F,QC,,Open,62.93,63,167.5,177.5,180,180,90,95,-100,95,172.5,182.5,-185,182.5,457.5,Raw
1,Jim Nahirniak,SBD,M,AB,,Masters 3,71.35,74,-152.5,162.5,-170,162.5,92.5,100,-102.5,100,185,197.5,-200,197.5,460,Raw
8,Sarah Novecosky,SBD,F,SK,,Open,111.5,84+,162.5,172.5,180,180,72.5,80,85,85,180,190,195,195,460,Raw
7,Sarah Lawson,SBD,F,ON,,Open,106.36,84+,165,175,182.5,182.5,75,80,82.5,82.5,185,195,-205,195,460,Raw
13,Isaac Harrison,SBD,M,NS,,Open,113.33,120,-155,165,175,175,95,105,115,115,155,175,-200,175,465,Raw
6,Nicole Michaud,SBD,F,NS,,Open,133.09,84+,170,180,185,185,90,95,97.5,97.5,170,180,185,185,467.5,Raw
1,Jason Johnson #5,SBD,M,NB,,Masters 2,71.5,74,-160,160,172.5,172.5,105,112.5,-115,112.5,172.5,182.5,185,185,470,Raw
6,Gracia Djokouehi,SBD,F,QC,,Open,75.33,76,152.5,162.5,172.5,172.5,67.5,72.5,75,75,197.5,210,222.5,222.5,470,Raw
4,Julie-Anne Pelletier-Grenier,SBD,F,QC,,Open,68.44,69,162.5,172.5,177.5,177.5,90,95,97.5,97.5,180,192.5,195,195,470,Raw
3,Leah Cameron,SBD,F,AB,,Open,68.96,69,162.5,-172.5,172.5,172.5,100,105.5,-106.5,105.5,172.5,185,192.5,192.5,470.5,Raw
7,Glen Chaytor,SBD,M,NL,,Masters 2,81.06,83,182.5,187.5,-192.5,187.5,90,97.5,-102.5,97.5,180,190,-195,190,475,Raw
1,Harry Farnsworth,SBD,M,ON,,Juniors,58.14,59,150,157.5,165,165,102.5,110,-112.5,110,180,190,200,200,475,Raw
1,Mélina Lebrasseur,SBD,F,QC,,Juniors,75.55,76,175,182.5,-187.5,182.5,80,87.5,90,90,192.5,205,-215,205,477.5,Raw
2,Shannon Huff,SBD,F,BC,,Open,67.45,69,170,180,185,185,97.5,102.5,106,106,172.5,187.5,-192.5,187.5,478.5,Raw
5,Gina O'Rourke,SBD,F,NB,,Open,73.79,76,155,165,175,175,75,85,90,90,195,215,-225,215,480,Raw
4,Lily Riggs,SBD,F,BC,,Open,75.13,76,177.5,187.5,-192.5,187.5,87.5,92.5,95,95,185,195,200,200,482.5,Raw
8,Barnabas Chun,SBD,M,ON,,Open,65.64,66,150,-162.5,170,170,115,120,125,125,182.5,187.5,190,190,485,Raw
1,Mélina Servant,SBD,F,QC,,Open,68.89,69,157.5,170,175,175,97.5,102.5,105,105,-197.5,210.5,-220.5,210.5,490.5,Raw
4,Jennifer Luther-Thomas,SBD,F,BC,,Open,83,84,200,210.5,216.5,216.5,75,85,90,90,167.5,177.5,187.5,187.5,494,Raw
6,Jim Ohlman,SBD,M,ON,,Masters 2,81.36,83,185,190,192.5,192.5,87.5,95,97.5,97.5,205,-215,-215,205,495,Raw
15,David Nicholson,SBD,M,AB,,Open,73.38,74,165,175,185,185,105,110,-115,110,170,185,200,200,495,Raw
7,Risley Tang,SBD,M,ON,,Open,65.98,66,150,-160,160,160,105,110,-115,110,210,225,-242.5,225,495,Raw
3,Rigel Dela Cruz,SBD,M,BC,,Juniors,65.7,66,165,175,180,180,97.5,102.5,-107.5,102.5,-185,190,212.5,212.5,495,Raw
3,Camille Gaudreau-Lévesque,SBD,F,QC,,Open,75.96,76,175,182.5,-185,182.5,97.5,102.5,105,105,192.5,200,207.5,207.5,495,Raw
2,Rashenna Grzybowski,SBD,F,SK,,Open,75.88,76,180,190,-195,190,95,100,-102.5,100,195,205,-215,205,495,Raw
2,Brandon Pace,SBD,M,NS,,Sub-Juniors,102.36,105,177.5,-185,,177.5,122.5,127.5,130,130,190,,,190,497.5,Raw
2,Caleb Grenier,SBD,M,QC,,Sub-Juniors,73.82,74,192.5,200,-205,200,105,110,112.5,112.5,170,180,187.5,187.5,500,Raw
1,Emily zur Linden,SBD,F,ON,,Open,62.6,63,172.5,177.5,180,180,102.5,107.5,110,110,192.5,202.5,210,210,500,Raw
5,Bryce Coutts,SBD,M,SK,,Masters 2,82.16,83,162.5,170,177.5,177.5,100,110,-115,110,192.5,205,215,215,502.5,Raw
3,Nathan Brière,SBD,M,QC,,Sub-Juniors,80.27,83,157.5,170,175,175,105,-112.5,112.5,112.5,200,212.5,222.5,222.5,510,Raw
6,Jordan Smith #2,SBD,M,MB,,Open,64.76,66,177.5,185,-192.5,185,110,117.5,-125,117.5,197.5,207.5,-212.5,207.5,510,Raw
3,Sophie Lavoie,SBD,F,QC,,Open,83.23,84,192.5,-205,-205,192.5,117.5,-122.5,-125,117.5,180,190,200,200,510,Raw
1,Kayla Overchuk,SBD,F,QC,,Open,75.88,76,177.5,185,187.5,187.5,85,90,92.5,92.5,217.5,230,-235,230,510,Raw
2,Azeez Al-Shaikhli,SBD,M,ON,,Juniors,65.53,66,175,185,190,190,102.5,107.5,-110,107.5,205,215,-227.5,215,512.5,Raw
5,Gabriella Sebrango,SBD,F,ON,,Open,102.86,84+,190,200,-210,200,87.5,92.5,97.5,97.5,202.5,215,-232.5,215,512.5,Raw
4,Iman Alroumani,SBD,F,BC,,Open,145.68,84+,-197.5,197.5,-212.5,197.5,97.5,100,102.5,102.5,200,215,-220,215,515,Raw
3,Benjamin Yu,SBD,M,BC,,Open,59,59,177.5,-185,-185,177.5,130,138,140.5,140.5,202.5,-220,-220,202.5,520.5,Raw
2,Nick Doelman,SBD,M,ON,,Masters 2,119.04,120,182.5,-190,190,190,120,127.5,-132.5,127.5,195,200,205,205,522.5,Raw
1,Réjean Talon,SBD,M,QC,,Masters 3,65.89,66,185,195.5,200,200,125,-133,133,133,180,190,,190,523,Single-ply
8,Alec Balfour,SBD,M,ON,,Open,143.55,120+,245,-247.5,-247.5,245,-185,185,205,205,75,-77.5,-275,75,525,Raw
7,Stephen Seney,SBD,M,NS,,Masters 1,102.41,105,-170,170,180,180,117.5,127.5,-130,127.5,207.5,220,-227.5,220,527.5,Raw
5,Brian Bowers,SBD,M,NS,,Masters 2,91.65,93,-160,170,-180,170,115,125,135,135,-200,-215,222.5,222.5,527.5,Raw
3,Ramanjot Ghuman,SBD,F,BC,,Open,96.62,84+,182.5,-192.5,197.5,197.5,100,107.5,110,110,202.5,215,220,220,527.5,Raw
6,Anthony Woodland,SBD,M,NB,,Masters 1,103.36,105,200,210,-215,210,110,-120,-120,110,200,210,-215,210,530,Raw
4,Andrew Bryant,SBD,M,BC,,Masters 2,82.78,83,180,195,-200,195,120,125,130,130,205,-215,-220,205,530,Raw
2,Olivia St-Hilaire,SBD,F,QC,,Open,83.75,84,170,180,185,185,137,141.5,-145.5,141.5,185,195,205,205,531.5,Raw
31,Djordan Gagnon,SBD,M,QC,,Open,92.9,93,280,-300,-300,280,170,180,-185,180,75,-275,-275,75,535,Raw
3,Brian Colbourne,SBD,M,AB,,Masters 2,81.83,83,172.5,182.5,-185,182.5,130,135,142.5,142.5,190,205,212.5,212.5,537.5,Raw
2,Court Sandau,SBD,M,AB,,Masters 2,81.74,83,170,180,187.5,187.5,125,-135,-135,125,200,215,225,225,537.5,Raw
1,Sandro D'Angelo,SBD,M,ON,,Masters 3,81.35,83,175,182.5,187.5,187.5,110,115,117.5,117.5,215,227.5,232.5,232.5,537.5,Raw
2,Andrew Bryant,SBD,M,BC,,Masters 2,82.81,83,180,200,220,220,-130,130,140,140,180,-200,-200,180,540,Single-ply
1,Shiek Ali,SBD,M,NS,,Masters 2,82.55,83,175,185,192.5,192.5,125,135,-142.5,135,185,200,212.5,212.5,540,Single-ply
5,Aaron Herrington,SBD,M,NB,,Masters 1,104.25,105,195,200,207.5,207.5,107.5,115,-120,115,205,217.5,-227.5,217.5,540,Raw
1,Shiek Ali,SBD,M,NS,,Masters 2,82.3,83,180,187.5,-195,187.5,130,135,140,140,192.5,202.5,212.5,212.5,540,Raw
2,Chris Fudge,SBD,M,ON,,Masters 1,75.92,83,180,190,197.5,197.5,120,125,127.5,127.5,205,215,-225,215,540,Raw
1,Pete Williams,SBD,M,BC,,Masters 1,65.61,66,155,165,175,175,120,127.5,132.5,132.5,212.5,222.5,232.5,232.5,540,Raw
24,Parmveer Pabla,SBD,M,ON,,Juniors,82.16,83,195,-205,-205,195,125,130,135,135,200,210,215,215,545,Raw
1,Dylan Reid #3,SBD,M,ON,,Sub-Juniors,72.67,74,175,182.5,190,190,-110,115,-120,115,220,230,240,240,545,Raw
2,Keaton Schuler,SBD,M,ON,,Sub-Juniors,80.04,83,180,190,200,200,120,125,-130,125,215,222.5,-227.5,222.5,547.5,Raw
2,Jake Edralin,SBD,M,ON,,Open,58.65,59,177.5,187.5,190,190,117.5,127.5,130,130,215,227.5,-237.5,227.5,547.5,Raw
1,Andrew Roncadin,SBD,M,MB,,Masters 1,80.26,83,170,-182.5,182.5,182.5,125,132.5,137.5,137.5,215,230,-235,230,550,Raw
6,Christopher LaPointe,SBD,M,NB,,Juniors,71.41,74,185,190,200,200,110,120,125,125,215,225,-240,225,550,Raw
4,R. Tyler McPhail,SBD,M,BC,,Masters 2,92.27,93,187.5,200,-202.5,200,125,132.5,-137.5,132.5,207.5,220,-230,220,552.5,Raw
3,Wayne Charles,SBD,M,ON,,Masters 2,90.2,93,182.5,197.5,207.5,207.5,95,100,-102.5,100,227.5,242.5,247.5,247.5,555,Raw
1,Brody Fitzpatrick,SBD,M,NS,,Sub-Juniors,97.51,105,197.5,210,217.5,217.5,105,110,-115,110,210,225,230,230,557.5,Raw
4,Drew Carleton,SBD,M,NB,,Masters 1,89.92,93,195,205,-215,205,117.5,122.5,127.5,127.5,210,220,230,230,562.5,Raw
1,Dickson Giang,SBD,M,BC,,Open,58.32,59,-185,185,192.5,192.5,125,132.5,-138.5,132.5,220,230,237.5,237.5,562.5,Raw
7,Anakin Rose,SBD,M,NB,,Open,156.94,120+,180,192.5,207.5,207.5,85,100,110,110,220,235,250,250,567.5,Raw
2,Jonathon Artale,SBD,M,ON,,Masters 1,73.16,74,185,195,202.5,202.5,125,132.5,-137.5,132.5,215,225,232.5,232.5,567.5,Raw
1,David Mclauchlan,SBD,M,ON,,Masters 3,116.82,120,180,195,-200,195,130,135,140,140,210,225,235,235,570,Raw
1,Adrian Cheung,SBD,M,ON,,Juniors,64.55,66,190,200,-205,200,130,135,-137.5,135,-215,215,235,235,570,Raw
1,Jessica Buettner,SBD,F,SK,,Open,82.85,84,200,210,216,216,100,105,-107.5,105,225,237.5,250.5,250.5,571.5,Raw
5,Hakeem Green,SBD,M,ON,,Open,65.6,66,185,195,205,205,115,122.5,127.5,127.5,210,227.5,240,240,572.5,Raw
4,Cole Hobson,SBD,M,NB,,Masters 1,97.58,105,192.5,200,-207.5,200,120,125,127.5,127.5,-235,235,247.5,247.5,575,Raw
23,Ben Hicks,SBD,M,NS,,Juniors,82.44,83,195,205,-217.5,205,-125,125,-127.5,125,225,237.5,245,245,575,Raw
22,Mathis Léonard,SBD,M,QC,,Juniors,82.27,83,200,207.5,-212.5,207.5,132.5,137.5,-142.5,137.5,215,230,-237.5,230,575,Raw
25,Ahmed Al Zahrani,SBD,M,ON,,Open,80.49,83,210,222.5,235,235,95,100,105,105,235,-250,-260,235,575,Raw
14,Jose Roginal Gabriel Atienza,SBD,M,ON,,Open,73.7,74,205,215,-217.5,215,115,-120,-120,115,232.5,245,-250,245,575,Raw
2,Marc Chapados,SBD,M,QC,,Masters 2,91.25,93,195,205,210,210,137.5,145,152.5,152.5,202.5,210,215,215,577.5,Raw
3,Brendan Crocker,SBD,M,NB,,Masters 1,86.68,93,197.5,207.5,-210,207.5,120,-127.5,-127.5,120,-237.5,237.5,250,250,577.5,Raw
5,Ryan Mood,SBD,M,ON,,Juniors,73.88,74,197.5,207.5,215,215,122.5,-130,-137.5,122.5,215,230,240,240,577.5,Raw
1,Roy Conrad,SBD,M,NS,,Masters 2,118.97,120,197.5,210,220,220,115,125,132.5,132.5,205,217.5,227.5,227.5,580,Raw
13,Peter Tang,SBD,M,ON,,Open,72.98,74,175,192.5,210,210,130,140,145,145,185,205,225,225,580,Raw
21,Euwe Makinano,SBD,M,MB,,Juniors,80.99,83,177.5,190,200,200,137.5,145,152.5,152.5,215,230,-245,230,582.5,Raw
1,Chris Fudge,SBD,M,ON,,Masters 1,75.27,83,200,212.5,-225,212.5,135,142.5,147.5,147.5,205,215,225,225,585,Single-ply
2,Brian Huang,SBD,M,ON,,Sub-Juniors,89.09,93,200,202.5,217.5,217.5,112.5,117.5,-120,117.5,230,245,250,250,585,Raw
12,Willem Yu,SBD,M,ON,,Open,73.32,74,210,222.5,-230,222.5,112.5,120,-125,120,225,242.5,-250,242.5,585,Raw
1,Lukas Crocker,SBD,M,NB,,Sub-Juniors,91.6,93,-182.5,182.5,190,190,110,120,125,125,245,255,272.5,272.5,587.5,Raw
20,Braeden Barnes,SBD,M,ON,,Juniors,82.14,83,210,220,230,230,130,137.5,140,140,217.5,-230,-235,217.5,587.5,Raw
1,Keith Evans #2,SBD,M,BC,,Masters 2,103.53,105,197.5,-205,205,205,125,130,-132.5,130,240,255,-265,255,590,Raw
24,Cody Dietrich,SBD,M,MB,,Open,80.89,83,-202.5,202.5,-210,202.5,-130,130,132.5,132.5,235,245,255,255,590,Raw
4,Jayms Kornelsen,SBD,M,MB,,Open,65.34,66,185,195,202.5,202.5,130,135,140,140,235,247.5,-252.5,247.5,590,Raw
3,Greg Walker,SBD,M,NB,,Masters 1,143.17,120+,190,202.5,217.5,217.5,120,125,132.5,132.5,242.5,-260,-260,242.5,592.5,Raw
27,Élie Pelletier,SBD,M,QC,,Juniors,86.71,93,195,205,210,210,130,140,145,145,245,-257.5,-257.5,245,600,Raw
19,Jean-Michel Boudreau,SBD,M,NB,,Juniors,81.65,83,207.5,217.5,222.5,222.5,137.5,145,150,150,215,227.5,-232.5,227.5,600,Raw
1,Peter Wylie,SBD,M,ON,,Masters 1,73.21,74,190,205,215,215,120,127.5,-132.5,127.5,242.5,257.5,-272.5,257.5,600,Raw
1,John Cadigan,SBD,M,NL,,Masters 2,91.42,93,-235,235,-245,235,110,117.5,120,120,222.5,235,247.5,247.5,602.5,Raw
26,Jacob Loder,SBD,M,QC,,Juniors,89.28,93,215,225,-240,225,135,142.5,-145,142.5,225,235,-245,235,602.5,Raw
18,Shounit Kamboj,SBD,M,BC,,Juniors,82.24,83,195,207.5,212.5,212.5,135,142.5,147.5,147.5,230,242.5,-252.5,242.5,602.5,Raw
3,Ben Raymond,SBD,M,NS,,Masters 1,101.17,105,190,202.5,210,210,112.5,117.5,120,120,250,265,275,275,605,Raw
17,Matthew Archambault,SBD,M,QC,,Juniors,81.46,83,187.5,200,205,205,137.5,147.5,150,150,215,240,250,250,605,Raw
7,Nicholas Ly,SBD,M,MB,,Juniors,98.72,105,-200,200,-225,200,137.5,150,157.5,157.5,220,250,-277.5,250,607.5,Raw
16,Maxence Famelart,SBD,M,QC,,Juniors,81.74,83,195,205,212.5,212.5,125,135,137.5,137.5,225,240,257.5,257.5,607.5,Raw
4,Zachary Brière,SBD,M,QC,,Juniors,73.22,74,217.5,227.5,,227.5,137.5,142.5,145,145,220,235,-245,235,607.5,Raw
25,Nicolas Friolet,SBD,M,NB,,Juniors,92.77,93,205,215,-227.5,215,175,180,-185,180,205,217.5,-225,217.5,612.5,Raw
23,Chris Hatcher,SBD,M,BC,,Open,82.46,83,212.5,222.5,-225,222.5,130,-137.5,140,140,240,250,-260,250,612.5,Raw
24,Jonathan Tellier,SBD,M,QC,,Juniors,91.94,93,217.5,230,237.5,237.5,130,140,145,145,215,-232.5,232.5,232.5,615,Raw
22,Daniel Alvarenga,SBD,M,QC,,Open,82.59,83,-210,210,-225,210,145,150,155,155,230,250,-260,250,615,Raw
15,Ashton Corr,SBD,M,ON,,Juniors,82.3,83,205,217.5,227.5,227.5,117.5,122.5,-127.5,122.5,230,247.5,265,265,615,Raw
14,Macayle Whyte,SBD,M,NB,,Juniors,81.33,83,205,215,-227.5,215,-145,145,-152.5,145,-257.5,-257.5,257.5,257.5,617.5,Raw
3,Frederick Callahan,SBD,M,ON,,Juniors,73.87,74,220,227.5,235,235,130,140,147.5,147.5,235,-245,-250,235,617.5,Raw
1,Turner Renard,SBD,M,BC,,Sub-Juniors,82.11,83,200,210,215,215,130,137.5,-142.5,137.5,250,270,-282.5,270,622.5,Raw
13,Kieran Mawani,SBD,M,ON,,Juniors,82.02,83,200,215,-220,215,122.5,-132.5,-132.5,122.5,265,285,-300,285,622.5,Raw
23,Danyal Hasan,SBD,M,ON,,Juniors,91.24,93,220,235,-247.5,235,120,127.5,130,130,242.5,260,-270,260,625,Raw
2,Tyler Ollech,SBD,M,BC,,Juniors,72.74,74,215,-225,232.5,232.5,135,147.5,152.5,152.5,220,232.5,240,240,625,Raw
2,Mackenzie Lai,SBD,F,BC,,Open,105.9,84+,227.5,240,-242.5,240,140,-150,-150,140,210,227.5,245,245,625,Raw
2,Jordanie Milien,SBD,M,QC,,Masters 1,94.63,105,220,235,240,240,130,137.5,-142.5,137.5,227.5,242.5,250,250,627.5,Raw
21,Trevor Pittman,SBD,M,NL,,Open,82.88,83,227.5,235,-242.5,235,145,152.5,-160,152.5,225,240,-242.5,240,627.5,Raw
20,Thamjeeth Abdul Gaffoor,SBD,M,ON,,Open,82.14,83,217.5,-230,235,235,130,137.5,-145,137.5,245,255,-265,255,627.5,Raw
12,Ethan Chung,SBD,M,ON,,Juniors,80.55,83,215,225,237.5,237.5,125,130,137.5,137.5,225,245,255,255,630,Raw
1,Mark Halka,SBD,M,ON,,Juniors,72.82,74,215,230,235,235,132.5,140,145,145,225,242.5,250,250,630,Raw
3,Derick Luu,SBD,M,ON,,Open,65.65,66,210,217.5,222.5,222.5,150,155,157.5,157.5,250,-260,-260,250,630,Raw
22,Argie Sugue,SBD,M,ON,,Juniors,92.83,93,220,232.5,240,240,142.5,150,-157.5,150,230,242.5,-252.5,242.5,632.5,Raw
21,Camdyn Carney,SBD,M,ON,,Juniors,92.03,93,210,222.5,232.5,232.5,127.5,135,-137.5,135,250,265,-275,265,632.5,Raw
11,Craig Roberts,SBD,M,MB,,Open,73.15,74,230,237.5,-242.5,237.5,135,140,142.5,142.5,240,252.5,-260,252.5,632.5,Raw
2,Philip Levy,SBD,M,ON,,Masters 1,91.85,93,210,222.5,227.5,227.5,137.5,145,150,150,247.5,260,-267.5,260,637.5,Raw
19,Ian Tibbs,SBD,M,ON,,Open,81.48,83,205,217.5,227.5,227.5,145,152.5,-157.5,152.5,245,257.5,-265,257.5,637.5,Raw
2,Eli Rancourt,SBD,M,QC,,Sub-Juniors,117.78,120,225,237.5,247.5,247.5,115,122.5,125,125,225,247.5,267.5,267.5,640,Raw
20,Mark Harris #1,SBD,M,BC,,Juniors,91.9,93,230,247.5,-257.5,247.5,140,142.5,147.5,147.5,235,245,-250,245,640,Raw
11,Lucas Fraser,SBD,M,NS,,Juniors,82.37,83,225,245,-255,245,135,145,150,150,225,245,-247.5,245,640,Raw
10,Peter McGuey,SBD,M,ON,,Juniors,82.18,83,200,210,215,215,132.5,140,142.5,142.5,250,265,282.5,282.5,640,Raw
10,Luke Hatfield,SBD,M,ON,,Open,73.4,74,210,220,232.5,232.5,120,130,135,135,240,260,272.5,272.5,640,Raw
1,JP Richard,SBD,M,PE,,Masters 1,92.57,93,195,210,215,215,142.5,150,157.5,157.5,247.5,265,270,270,642.5,Raw
30,Anthony Wong,SBD,M,ON,,Open,92.5,93,225,237.5,-245,237.5,-165,165,-170,165,240,-260,-272.5,240,642.5,Raw
29,David Twomey,SBD,M,BC,,Open,92.11,93,222.5,232.5,-237.5,232.5,137.5,145,147.5,147.5,245,255,262.5,262.5,642.5,Raw
19,Abdelrahman Abouadma,SBD,M,NS,,Juniors,91.27,93,222.5,235,-245,235,150,160,-165,160,232.5,247.5,-257.5,247.5,642.5,Raw
28,Tong Cao,SBD,M,MB,,Open,89.04,93,-217.5,217.5,232.5,232.5,137.5,142.5,145,145,250,260,265,265,642.5,Raw
27,Nathan Baxter #3,SBD,M,NS,,Open,88.95,93,210,222.5,230,230,132.5,140,145,145,247.5,262.5,267.5,267.5,642.5,Raw
18,Jamie Sparkes,SBD,M,ON,,Open,82.78,83,210,220,225,225,120,130,135,135,265,282.5,-285,282.5,642.5,Raw
9,Alexander Levy,SBD,M,BC,,Juniors,82.5,83,192.5,207.5,220,220,125,135,142.5,142.5,250,267.5,280,280,642.5,Raw
8,Vincent Morel,SBD,M,QC,,Juniors,81.88,83,210,-222.5,222.5,222.5,140,-145,145,145,260,275,-282.5,275,642.5,Raw
17,Andrew Brown #15,SBD,M,NS,,Open,81.18,83,210,220,230,230,140,147.5,152.5,152.5,235,260,-267.5,260,642.5,Raw
26,Evan Collins,SBD,M,NL,,Open,92.84,93,237.5,252.5,257.5,257.5,130,135,137.5,137.5,235,250,-255,250,645,Raw
16,Dryden Bussey,SBD,M,NL,,Open,82.65,83,235,245,250,250,137.5,142.5,145,145,230,240,250,250,645,Raw
18,Kevin Liang,SBD,M,ON,,Juniors,92.26,93,230,242.5,-252.5,242.5,135,142.5,145,145,235,250,260,260,647.5,Raw
17,Alex Mackid,SBD,M,MB,,Juniors,91,93,205,215,225,225,130,140,147.5,147.5,240,260,275,275,647.5,Raw
15,Philippe Gendron,SBD,M,QC,,Open,80.99,83,-220,225,232.5,232.5,135,-142.5,-142.5,135,265,275,280,280,647.5,Raw
14,David Man,SBD,M,ON,,Open,81.27,83,230,242.5,252.5,252.5,125,130,135,135,242.5,262.5,-277.5,262.5,650,Raw
7,Leyton Feargrieve,SBD,M,NS,,Juniors,80.96,83,230,237.5,242.5,242.5,-145,147.5,-155,147.5,240,252.5,260,260,650,Raw
6,Noah Dupuis,SBD,M,QC,,Juniors,104.07,105,230,242.5,-250,242.5,145,152.5,155,155,240,255,-265,255,652.5,Raw
6,Karl Racine-Gravel,SBD,M,QC,,Juniors,82.41,83,207.5,217.5,227.5,227.5,152.5,162.5,170,170,230,245,255,255,652.5,Raw
2,Carlos Castillo,SBD,M,AB,,Open,65.92,66,217.5,225,230,230,135,140,147.5,147.5,265,275,-287.5,275,652.5,Raw
16,Gian Asuncion,SBD,M,MB,,Juniors,92.08,93,220,230,-235,230,137.5,145,150,150,255,267.5,275,275,655,Raw
25,Hui Jong Zeon,SBD,M,ON,,Open,91.21,93,252.5,265,275,275,140,-145,145,145,237.5,-250,-250,237.5,657.5,Raw
15,Caelan MacRury,SBD,M,NS,,Juniors,90.7,93,207.5,217.5,225,225,117.5,125,132.5,132.5,275,287.5,300,300,657.5,Raw
5,Samuel Marchand,SBD,M,NS,,Juniors,79.33,83,217.5,227.5,235,235,150,152.5,155,155,250,260,267.5,267.5,657.5,Raw
24,Alexander Holmes,SBD,M,PE,,Open,92.79,93,215,227.5,,227.5,135,142.5,-147.5,142.5,265,280,290,290,660,Raw
14,Sebastian Camargos,SBD,M,ON,,Juniors,92.76,93,230,242.5,-252.5,242.5,132.5,140,145,145,257.5,272.5,-285,272.5,660,Raw
13,Dustin Pillon,SBD,M,ON,,Juniors,92.11,93,250,-262.5,-267.5,250,135,145,150,150,-255,260,-275,260,660,Raw
4,Carl Tabanao,SBD,M,QC,,Juniors,80.84,83,-240,240,-252.5,240,127.5,135,-137.5,135,270,282.5,285,285,660,Raw
1,Malhar Patil,SBD,M,AB,,Open,65.8,66,210,230,237.5,237.5,135,142.5,150,150,250,267.5,275,275,662.5,Raw
23,Samuel Morin,SBD,M,QC,,Open,92.62,93,225,235,245,245,152.5,-157.5,157.5,157.5,262.5,-272.5,-272.5,262.5,665,Raw
22,Davis Hogg,SBD,M,SK,,Open,92.19,93,235,-250,-255,235,142.5,150,152.5,152.5,255,270,277.5,277.5,665,Raw
9,Daniel Remulla,SBD,M,ON,,Open,73.82,74,220,232.5,240,240,155,165,-170,165,245,260,-272.5,260,665,Raw
2,Stephane Dupont,SBD,M,NB,,Masters 1,115.55,120,215,225,230,230,140,-152.5,152.5,152.5,250,275,285,285,667.5,Raw
21,Kevin Donoghue,SBD,M,NL,,Open,88.09,93,230,-240,245,245,150,160,170,170,235,252.5,-255,252.5,667.5,Raw
13,Eric Hou,SBD,M,ON,,Open,82.27,83,232.5,245,255,255,-132.5,142.5,-150,142.5,240,255,270,270,667.5,Raw
1,Jerome Amegbeto,SBD,M,ON,,Juniors,131.99,120+,210,225,240,240,127.5,137.5,-147.5,137.5,292.5,-310,-335.5,292.5,670,Raw
20,Thierry Charron,SBD,M,NS,,Open,92.32,93,215,225,235,235,167.5,175,180,180,245,257.5,-270,257.5,672.5,Raw
12,Ethan Joyce,SBD,M,NL,,Juniors,92.52,93,220,232.5,240,240,147.5,-152.5,152.5,152.5,265,282.5,-295,282.5,675,Raw
11,Chris Henderson #6,SBD,M,BC,,Juniors,92.39,93,242.5,255,260,260,135,142.5,145,145,252.5,-270,270,270,675,Raw
10,Glay Yang,SBD,M,BC,,Juniors,91.76,93,225,-237.5,245,245,155,165,167.5,167.5,242.5,262.5,-272.5,262.5,675,Raw
19,Priyan Menon,SBD,M,ON,,Open,91.14,93,215,225,230,230,147.5,155,160,160,270,285,-292.5,285,675,Raw
12,Tristan Villaroel,SBD,M,QC,,Open,82.5,83,232.5,252.5,-260,252.5,152.5,162.5,-165,162.5,240,260,-272.5,260,675,Raw
18,Jordan Downer-Cole,SBD,M,ON,,Open,92.3,93,222.5,232.5,242.5,242.5,145,150,155,155,270,280,-290,280,677.5,Raw
17,Jesse Barnes,SBD,M,ON,,Open,91.37,93,230,247.5,-255,247.5,155,-165,-165,155,255,275,-290,275,677.5,Raw
17,Owen Bennett #1,SBD,M,ON,,Open,82.6,83,230,-242.5,247.5,247.5,135,142.5,145,145,270,285,-300,285,677.5,Raw
9,Jack Quibell,SBD,M,ON,,Juniors,91.18,93,247.5,255,260,260,145,150,155,155,-252.5,252.5,265,265,680,Raw
16,Taylor Becker,SBD,M,SK,,Open,91.96,93,245,257.5,265,265,147.5,152.5,157.5,157.5,247.5,260,-275,260,682.5,Raw
1,Dale Willicombe,SBD,M,ON,,Masters 1,117.72,120,235,-250,250,250,-170,175,-177.5,175,235,250,260,260,685,Raw
1,Michael Crowe,SBD,M,AB,,Masters 1,104.61,105,235,245,250,250,145,155,160,160,265,277.5,-285,277.5,687.5,Raw
8,Anthony DeSousa,SBD,M,ON,,Juniors,92.91,93,235,247.5,-257.5,247.5,155,160,165,165,275,-295,-302.5,275,687.5,Raw
15,Jalen Lennon,SBD,M,ON,,Open,90.76,93,215,227.5,232.5,232.5,170,175,,175,265,280,-292.5,280,687.5,Raw
14,Ian Tse,SBD,M,ON,,Open,90.27,93,242.5,250,257.5,257.5,145,152.5,-155,152.5,260,270,277.5,277.5,687.5,Raw
10,Ryan MacLellan,SBD,M,BC,,Open,82.35,83,197.5,210,220,220,177.5,187.5,192.5,192.5,260,275,-287.5,275,687.5,Raw
3,Dru Muir,SBD,M,ON,,Juniors,117.98,120,230,242.5,255,255,140,147.5,-155,147.5,275,287.5,-305,287.5,690,Raw
23,Miguel Paradis Turpin,SBD,M,QC,,Open,98.54,105,235,247.5,255,255,150,152.5,-155,152.5,250,270,282.5,282.5,690,Raw
7,Leeroy Kobe Mesina,SBD,M,ON,,Juniors,92.36,93,225,240,245,245,155,-165,165,165,260,280,-295,280,690,Raw
8,Jonathan Cruz #1,SBD,M,BC,,Open,73.95,74,232.5,-242.5,242.5,242.5,145,155,-165,155,277.5,292.5,-297.5,292.5,690,Raw
6,Harout Khacheekian,SBD,M,ON,,Juniors,91.59,93,245,257.5,-265,257.5,150,160,-167.5,160,255,275,-305,275,692.5,Raw
5,Nickolas Tarasca,SBD,M,ON,,Juniors,91.78,93,240,252.5,265,265,160,170,-177.5,170,245,-260,260,260,695,Raw
22,Mark Totten,SBD,M,NB,,Open,103.27,105,225,237.5,245,245,152.5,160,-165,160,265,280,295,295,700,Raw
3,Matthew Laroche,SBD,M,QC,,Juniors,82.09,83,225,240,250,250,132.5,137.5,142.5,142.5,290,307.5,-325,307.5,700,Raw
7,Michael Sanchez #2,SBD,M,ON,,Open,73.65,74,225,235,240,240,155,165,170,170,280,290,-305,290,700,Raw
21,Christopher Handel,SBD,M,AB,,Open,104.53,105,275,-290,-290,275,142.5,147.5,-152.5,147.5,265,280,-287.5,280,702.5,Raw
13,Daniel Bedell,SBD,M,NS,,Open,90.36,93,235,250,-265,250,170,180,187.5,187.5,245,255,265,265,702.5,Raw
1,Brittany Schlater,SBD,F,ON,,Open,130.57,84+,252.5,267.5,277.5,277.5,145,-152.5,152.5,152.5,250,262.5,273.5,273.5,703.5,Raw
20,Devin Gutierrez,SBD,M,ON,,Open,103.89,105,237.5,247.5,-257.5,247.5,150,157.5,162.5,162.5,270,-285,295,295,705,Raw
19,Carter Bogart,SBD,M,BC,,Open,102.95,105,245,255,257.5,257.5,137.5,145,147.5,147.5,275,290,300,300,705,Raw
18,Steve Tsiptsis,SBD,M,QC,,Open,101.26,105,227.5,235,242.5,242.5,165,170,175,175,275,287.5,-300,287.5,705,Raw
6,Justin Quedado,SBD,M,AB,,Open,73.84,74,235,-247.5,-247.5,235,160,165,-167.5,165,290,305,-317,305,705,Raw
2,Nathan Eisbrenner,SBD,M,MB,,Masters 1,149.08,120+,230,245,255,255,147.5,155,160,160,265,280,292.5,292.5,707.5,Raw
2,Jasper Chen,SBD,M,BC,,Juniors,118.88,120,-250,255,-257.5,255,145,155,162.5,162.5,260,280,290,290,707.5,Raw
5,Jared McIntyre,SBD,M,ON,,Open,73.67,74,-242.5,-247.5,247.5,247.5,162.5,170,175,175,267.5,285,-297.5,285,707.5,Raw
1,Peter Michaud,SBD,M,NB,,Masters 2,124.31,120+,-265,280,-290,280,152.5,160,165,165,265,-280,-285,265,710,Raw
12,Nicholas Farrales,SBD,M,ON,,Open,92.57,93,260,275,282.5,282.5,137.5,142.5,147.5,147.5,280,-290,-290,280,710,Raw
9,Luke Bermingham,SBD,M,ON,,Open,82.4,83,265,285,300,300,142.5,150,-155,150,260,-275,-275,260,710,Raw
2,Benedict Alexander,SBD,M,ON,,Juniors,79.89,83,230,240,245,245,155,165,-167.5,165,290,300,-305,300,710,Raw
4,Connor Lutz,SBD,M,AB,,Open,73.86,74,237.5,-250,257.5,257.5,177.5,187.5,-193.5,187.5,265,-275,-275,265,710,Raw
5,Maxime Savoie,SBD,M,NB,,Juniors,98.7,105,250,265,272.5,272.5,130,145,155,155,265,-282.5,285,285,712.5,Raw
4,Sacha Boissinot,SBD,M,QC,,Juniors,92.36,93,242.5,255,265,265,150,155,160,160,265,280,287.5,287.5,712.5,Raw
11,Adam Proud,SBD,M,NB,,Open,91.39,93,250,262.5,275,275,167.5,177.5,-185,177.5,242.5,260,-270,260,712.5,Raw
4,Andrew Drysdale,SBD,M,NS,,Juniors,104.36,105,265,280,-292.5,280,127.5,135,-137.5,135,280,300,-315,300,715,Raw
17,Kelechi Asagwara,SBD,M,MB,,Open,103.92,105,240,247.5,255,255,150,155,160,160,300,-325,-325,300,715,Raw
1,Tung Hsuan Yen,SBD,M,BC,,Juniors,82.33,83,215,227.5,235,235,180,190,197,197,265,280,285,285,717,Raw
16,Matt Gledhill,SBD,M,NS,,Open,103.69,105,-250,250,265,265,137.5,145,150,150,270,290,305,305,720,Raw
15,Alex Boyd,SBD,M,NS,,Open,102.93,105,245,260,267.5,267.5,145,152.5,-157.5,152.5,280,300,-310,300,720,Raw
10,Jared Dennis,SBD,M,QC,,Open,92.15,93,242.5,257.5,-262.5,257.5,140,147.5,152.5,152.5,280,300,310,310,720,Raw
3,Joni Shkreta,SBD,M,QC,,Juniors,92.33,93,265,277.5,282.5,282.5,160,170,172.5,172.5,250,267.5,-272.5,267.5,722.5,Raw
9,Kevin Chau,SBD,M,ON,,Open,92.26,93,245,260,275,275,145,157.5,165,165,265,282.5,-295,282.5,722.5,Raw
8,Gabriel Gomez #1,SBD,M,BC,,Open,92.15,93,250,257.5,-260,257.5,160,167.5,172.5,172.5,270,282.5,292.5,292.5,722.5,Raw
2,Nathan Oliphant,SBD,M,ON,,Juniors,91.29,93,257.5,272.5,282.5,282.5,140,147.5,152.5,152.5,270,287.5,-310,287.5,722.5,Raw
14,Mo Darrat,SBD,M,ON,,Open,102.32,105,250,270,277.5,277.5,162.5,167.5,172.5,172.5,175,225,275,275,725,Raw
3,Colby Richardson,SBD,M,NB,,Juniors,102.59,105,245,260,265,265,180,182.5,-187.5,182.5,267.5,280,-282.5,280,727.5,Raw
8,Khalil Cazranee,SBD,M,ON,,Open,82.61,83,245,255,-265,255,177.5,185,190,190,260,272.5,282.5,282.5,727.5,Raw
3,Jeremy Klaus,SBD,M,BC,,Open,73.48,74,237.5,247.5,255,255,155,162.5,167.5,167.5,290,305,-316.5,305,727.5,Raw
13,Wesley Harper,SBD,M,NS,,Open,104.16,105,240,252.5,262.5,262.5,192.5,200,202.5,202.5,240,255,265,265,730,Raw
7,Edwin Castillo,SBD,M,ON,,Open,81.34,83,260,270,-275,270,140,147.5,150,150,292.5,310,-322.5,310,730,Raw
12,Cowan Donovan,SBD,M,NB,,Open,104.14,105,260,272.5,275,275,150,-167.5,-167.5,150,305,307.5,-310,307.5,732.5,Raw
6,Brock Allen #1,SBD,M,ON,,Open,82.5,83,242.5,257.5,267.5,267.5,165,172.5,-180,172.5,260,275,292.5,292.5,732.5,Raw
1,Tate Commandeur,SBD,M,BC,,Sub-Juniors,105.19,120,245,255,265,265,-170.5,170.5,180.5,180.5,265,-288,288,288,733.5,Raw
11,Devon Dunn,SBD,M,BC,,Open,102.46,105,257.5,280,287.5,287.5,145,160,-170,160,265,290,-295,290,737.5,Raw
2,Kiyaan Chavoshi,SBD,M,ON,,Juniors,101.9,105,255,267.5,282.5,282.5,147.5,157.5,162.5,162.5,265,282.5,292.5,292.5,737.5,Raw
7,Kevin Belonio,SBD,M,BC,,Open,92.76,93,-267.5,-267.5,267.5,267.5,150,160,165,165,270,290,305,305,737.5,Raw
2,Blake Barrett #1,SBD,M,ON,,Open,73.76,74,250,265,270,270,155,162.5,165,165,282.5,302.5,-307.5,302.5,737.5,Raw
1,Olanrewaju Adeoye,SBD,M,ON,,Open,73.82,74,265,-282.5,286.5,286.5,135,142.5,147.5,147.5,265,285,305,305,739,Raw
12,Rory MacIntyre,SBD,M,AB,,Open,116.43,120,270,287.5,-295,287.5,157.5,162.5,-170,162.5,272.5,290,-302.5,290,740,Raw
10,Stephen Kim,SBD,M,ON,,Open,104.66,105,235,250,262.5,262.5,155,162.5,175,175,270,287.5,302.5,302.5,740,Raw
5,Divine Wekwa,SBD,M,BC,,Open,82.68,83,260,275,-280,275,140,150,,150,275,295,317.5,317.5,742.5,Raw
11,Pavel Kanfer,SBD,M,ON,,Open,119.01,120,275,290,-295,290,162.5,167.5,170,170,260,275,285,285,745,Raw
1,Zachary Beros,SBD,M,SK,,Juniors,118.54,120,290,305,-310,305,162.5,170,175,175,255,265,-272.5,265,745,Raw
1,Brayden Leclerc,SBD,M,ON,,Juniors,92.19,93,275,290,-300,290,-162.5,167.5,172.5,172.5,260,272.5,282.5,282.5,745,Raw
6,Christopher Grondin,SBD,M,QC,,Open,91.56,93,240,252.5,260,260,157.5,167.5,-172.5,167.5,290,305,320,320,747.5,Raw
6,Jashanpreet Singh,SBD,M,AB,,Open,142.83,120+,-285,292.5,-297.5,292.5,165,167.5,-170,167.5,275,290,-295,290,750,Raw
9,Nicolas Charbonneau,SBD,M,QC,,Open,104.38,105,275,290,302.5,302.5,147.5,157.5,-167.5,157.5,275,290,-300,290,750,Raw
1,Matthew Lucas,SBD,M,BC,,Masters 1,142.87,120+,270,287.5,,287.5,170,-177.5,-177.5,170,280,305,-315,305,762.5,Raw
10,Todd Wood,SBD,M,AB,,Open,117.97,120,255,265,270,270,195,200,205,205,267.5,287.5,-295,287.5,762.5,Raw
8,Taylor Shadgett,SBD,M,ON,,Open,103.64,105,265,277.5,285,285,150,155,157.5,157.5,290,310,320,320,762.5,Raw
5,Jacob Pickel,SBD,M,NB,,Open,90.89,93,272.5,280,282.5,282.5,182.5,-187.5,-187.5,182.5,290,302.5,-310,302.5,767.5,Raw
9,Luc Laplante,SBD,M,AB,,Open,119.62,120,255,270,280,280,190,-200,200,200,275,290,-300,290,770,Raw
9,William Talbot #1,SBD,M,QC,,Open,119.49,120,290,310,315,315,162.5,-172.5,172.5,172.5,285,-305,-312.5,285,772.5,Raw
7,Niko Nikolic,SBD,M,ON,,Open,103.19,105,292.5,305,315,315,175,185,192.5,192.5,265,-282.5,-282.5,265,772.5,Raw
1,John Walls,SBD,M,AB,,Juniors,101.35,105,272.5,287.5,300,300,195,205.5,210.5,210.5,265,-280,-292.5,265,775.5,Raw
4,Nick Manders,SBD,M,AB,,Open,82.73,83,245,260,267.5,267.5,165,170,175,175,335,-352.5,-357.5,335,777.5,Raw
7,Jeffrey Baker,SBD,M,NS,,Open,119.73,120,275,-285,-285,275,175,180,185,185,300,320,-332.5,320,780,Raw
4,Johnathan Asselstine,SBD,M,ON,,Open,92.85,93,270,-280,280,280,180,187.5,190,190,290,310,-320,310,780,Raw
3,William Veilleux,SBD,M,QC,,Open,82.79,83,-270,270,280,280,172.5,180,-187.5,180,287.5,300,320,320,780,Raw
3,Kyle Graham,SBD,M,ON,,Open,92.4,93,295,313,318,318,157.5,167.5,-172.5,167.5,310,-340,-355,310,795.5,Raw
2,Adam Jansson,SBD,M,ON,,Open,82.86,83,270,282.5,290,290,185,192.5,197.5,197.5,285,300,310,310,797.5,Raw
1,Kafui Hotsonyame,SBD,M,ON,,Open,81.98,83,262.5,277.5,290,290,-167.5,170,180,180,305,322.5,327.5,327.5,797.5,Raw
6,Kam Hughes,SBD,M,ON,,Open,119.8,120,290,-310,-310,290,192.5,200,-205,200,295,322.5,-342.5,322.5,812.5,Raw
6,Zack Chwok,SBD,M,AB,,Open,103.53,105,280,295,300,300,175,182.5,187.5,187.5,305,325,-335,325,812.5,Raw
1,Mathieu Kennedy,SBD,M,QC,,Open,97.06,105,285,300,307.5,307.5,195,202.5,-207.5,202.5,275,292.5,305,305,815,Single-ply
2,Alexander Wei Rui Ang,SBD,M,BC,,Open,91.64,93,265,280,-292.5,280,165,172.5,180,180,315,345,355,355,815,Raw
5,Matthew Lewis Vena,SBD,M,BC,,Open,104.69,105,315,322.5,-325,322.5,170,175,180,180,300,310,320,320,822.5,Raw
5,Kristopher Hanrahan,SBD,M,NL,,Open,147.88,120+,280,300,310,310,192.5,205,-212.5,205,282.5,300,310,310,825,Raw
1,Luke Homer,SBD,M,ON,,Open,73.61,74,315,325,,325,185,-192.5,195.5,195.5,290,305,-315.5,305,825.5,Single-ply
4,Christopher Acosta-Tapia,SBD,M,QC,,Open,98.94,105,300,317.5,325,325,175,182.5,187.5,187.5,325,-355,-367.5,325,837.5,Raw
5,Alexis Lacombe,SBD,M,QC,,Open,119.75,120,300,315,-330,315,175,-182.5,-182.5,175,325,345,-360,345,835,Raw
1,Kwaku Antwi,SBD,M,AB,,Open,92.43,93,257.5,-272.5,277.5,277.5,195,202.5,207.5,207.5,330,345,357.5,357.5,842.5,Raw
4,Graeme Laprade,SBD,M,ON,,Open,117.28,120,300,320,335,335,200,207.5,-212.5,207.5,300,315,322.5,322.5,865,Raw
1,John MacDonald #1,SBD,M,PE,,Masters 1,131.4,120+,225,-305,315,315,150,265,287.5,287.5,200,250,277.5,277.5,880,Single-ply
3,Marc-Antoine Gosselin,SBD,M,QC,,Open,119.52,120,300,320,-325,320,205,215,-217.5,215,310,345,-365,345,880,Raw
3,Philippe Blier,SBD,M,QC,,Open,103.65,105,310,327.5,-330,327.5,207.5,217.5,222.5,222.5,310,325,335,335,885,Raw
4,Olivier Belleau,SBD,M,QC,,Open,162.78,120+,305,325,335,335,225,237.5,247.5,247.5,285,305,317.5,317.5,900,Raw
2,Stanley Clitus,SBD,M,QC,,Open,104.24,105,300,320,332.5,332.5,210,225.5,-233,225.5,320,342.5,350,350,908,Raw
1,Walter Cariazo,SBD,M,ON,,Open,104.03,105,290,305,315,315,200,210,215,215,320,350,378,378,908,Raw
2,Lucas Wiseman,SBD,M,NL,,Open,119.6,120,335,352.5,360.5,360.5,185,192.5,-197.5,192.5,332.5,350,357.5,357.5,910.5,Raw
1,Bryce Krawczyk,SBD,M,AB,,Open,119.12,120,295,320,327.5,327.5,187.5,200,205,205,345,365,380,380,912.5,Raw
3,Trevor Greenwood,SBD,M,ON,,Open,156.17,120+,335,355,-365,355,217.5,227.5,232.5,232.5,310,330,-365,330,917.5,Raw
2,Jason Byrne #1,SBD,M,ON,,Open,148.66,120+,335,360,380.5,380.5,205,220,225,225,325,345,360,360,965.5,Raw
1,Erik Willis,SBD,M,ON,,Open,140.27,120+,295,312.5,327.5,327.5,237.5,250,259,259,340,365,379,379,965.5,Raw
