Division,WeightClassKg,Place,Name,Team,BodyweightKg,Best3SquatKg,Best3BenchKg,Best3DeadliftKg,TotalKg,Equipment,Event,Sex,BirthDate
Boys,51.71,1,Arnold Lopez,Port Isabel,51.26,142.88,77.11,165.56,385.55,Unlimited,SBD,M,
Boys,51.71,2,Leonardo Sauceda,Edinburg Economedes,50.62,147.42,83.91,147.42,378.75,Unlimited,SBD,M,
Boys,51.71,3,Ryan Lugo,San Benito,50.53,122.47,83.91,129.27,335.66,Unlimited,SBD,M,
Boys,51.71,4,Marcus Ortiz,Edinburg Vela,50.17,86.18,95.25,129.27,310.71,Unlimited,SBD,M,
Boys,51.71,5,Gael Medina,Brownsville Riverview IDEA,49.9,81.65,38.56,90.72,210.92,Unlimited,SBD,M,
Boys,51.71,DQ,Eduardo Reyna,Brownsville Rivera,51.71,,,,,Unlimited,SBD,M,
Boys,55.79,1,Vicente Azuara,Port Isabel,55.61,174.63,102.06,183.7,460.4,Unlimited,SBD,M,
Boys,55.79,2,Gabriel Ozuna,Edinburg Vela,53.8,183.7,70.31,165.56,419.57,Unlimited,SBD,M,
Boys,55.79,3,Joe Cruz,Edinburg North,54.07,136.08,90.72,181.44,408.23,Unlimited,SBD,M,
Boys,55.79,4,Job Chapa,Brownsville Rivera,55.61,142.88,95.25,156.49,394.63,Unlimited,SBD,M,
Boys,55.79,5,Gerardo Sandoval,PSJA Memorial,55.16,129.27,72.57,117.93,319.78,Unlimited,SBD,M,
Boys,55.79,6,Adrian Garcia,Edinburg,55.7,104.33,72.57,136.08,312.98,Unlimited,SBD,M,
Boys,55.79,DQ,Justin Morales,Brownsville Riverview IDEA,53.43,,,,,Unlimited,SBD,M,
Boys,59.87,1,Angel Trevino,San Benito,59.69,195.04,129.27,192.78,517.1,Unlimited,SBD,M,
Boys,59.87,2,Aaron Flores,Edinburg Vela,58.33,113.4,97.52,151.95,362.87,Unlimited,SBD,M,
Boys,59.87,3,Jesus Quintanilla,Edinburg,59.87,136.08,77.11,149.69,362.87,Unlimited,SBD,M,
Boys,59.87,4,Gael Espino,Edinburg,56.97,131.54,77.11,149.69,358.34,Unlimited,SBD,M,
Boys,59.87,5,Luis Lopez,Edinburg North,59.87,142.88,70.31,142.88,356.07,Unlimited,SBD,M,
Boys,59.87,6,Sao Perez,Brownsville Riverview IDEA,59.42,133.81,79.38,140.61,353.8,Unlimited,SBD,M,
Boys,59.87,7,Christian Puerta,PSJA Memorial,59.87,115.67,74.84,127.01,317.51,Unlimited,SBD,M,
Boys,59.87,8,Jayden Stewart,Edinburg,57.79,90.72,56.7,108.86,256.28,Unlimited,SBD,M,
Boys,59.87,DQ,Elias Zapot,Brownsville Rivera,59.6,154.22,,,,Unlimited,SBD,M,
Boys,67.13,1,Nick Perez,Brownsville Pace,66.59,258.55,151.95,235.87,646.37,Unlimited,SBD,M,
Boys,67.13,2,Julius Molina,Edinburg North,66.59,226.8,124.74,206.38,557.92,Unlimited,SBD,M,
Boys,67.13,3,Orlando Torres,Edinburg North,66.13,219.99,124.74,199.58,544.31,Unlimited,SBD,M,
Boys,67.13,4,Aidan Cantu,Edinburg Vela,67.04,201.85,124.74,183.7,510.29,Unlimited,SBD,M,
Boys,67.13,5,Eric Mata,Harlingen South,65.77,172.37,115.67,156.49,444.52,Unlimited,SBD,M,
Boys,67.13,6,Josiha Navarro,Brownsville Rivera,66.81,161.03,115.67,165.56,442.25,Unlimited,SBD,M,
Boys,67.13,7,Jaime Manriquez,Harlingen,66.41,142.88,106.59,165.56,415.04,Unlimited,SBD,M,
Boys,67.13,8,David De La Garza,Edinburg,67.04,145.15,95.25,158.76,399.16,Unlimited,SBD,M,
Boys,67.13,9,Tyler Galvan,Edinburg,64.86,133.81,70.31,147.42,351.53,Unlimited,SBD,M,
Boys,67.13,10,Victor Hernandez,Brownsville Riverview IDEA,66.5,113.4,79.38,131.54,324.32,Unlimited,SBD,M,
Boys,67.13,DQ,Joaquin Castaneda,Edinburg Economedes,67.13,219.99,,,,Unlimited,SBD,M,
Boys,67.13,DQ,Marco Hernandez,Brownsville Pace,67.13,,,,,Unlimited,SBD,M,
Boys,67.13,DQ,Owen Torres,Brownsville Pace,65.86,170.1,,,,Unlimited,SBD,M,
Boys,74.84,1,Devin Aguilar,Edinburg North,74.84,276.69,183.7,258.55,718.94,Unlimited,SBD,M,
Boys,74.84,2,Juan Sanchez,Edinburg North,74.39,229.06,124.74,249.48,603.28,Unlimited,SBD,M,
Boys,74.84,3,Evander Guana,Edinburg Vela,72.39,192.78,151.95,226.8,571.53,Unlimited,SBD,M,
Boys,74.84,4,Jonathan Hernandez,Edinburg Economedes,68.58,183.7,120.2,219.99,523.9,Unlimited,SBD,M,
Boys,74.84,5,Jose Salgado,Harlingen,73.66,172.37,111.13,231.33,514.83,Unlimited,SBD,M,
Boys,74.84,6,Gene Gallegos,Brownsville Riverview IDEA,67.77,197.31,120.2,190.51,508.02,Unlimited,SBD,M,
Boys,74.84,7,David Garcia,Brownsville Rivera,74.48,201.85,136.08,142.88,480.81,Unlimited,SBD,M,
Boys,74.84,8,Diego Requena,Harlingen South,71.67,165.56,102.06,183.7,451.32,Unlimited,SBD,M,
Boys,74.84,9,Adrian Falcon,Edinburg,74.21,167.83,117.93,158.76,444.52,Unlimited,SBD,M,
Boys,74.84,10,Andrew Avila,Harlingen South,74.21,167.83,92.99,158.76,419.57,Unlimited,SBD,M,
Boys,74.84,11,Woodrow Villareal,Edinburg,71.67,158.76,86.18,161.03,405.97,Unlimited,SBD,M,
Boys,74.84,DQ,Jacob Jimenez,PSJA Memorial,72.03,192.78,115.67,,,Unlimited,SBD,M,
Boys,74.84,DQ,Kevin Hernandez #4,Brownsville Pace,74.84,,,,,Unlimited,SBD,M,
Boys,74.84,DQ,Gio Hates,Brownsville Pace,74.84,124.74,,,,Unlimited,SBD,M,
Boys,74.84,DQ,Alexis Limon,Edinburg North,73.3,201.85,,,,Unlimited,SBD,M,
Boys,82.1,1,Jesus Cantu,Edinburg Economedes,76.38,272.16,147.42,240.4,659.98,Unlimited,SBD,M,
Boys,82.1,2,Aaron Barrera,Port Isabel,81.19,233.6,179.17,215.46,628.23,Unlimited,SBD,M,
Boys,82.1,3,Jaime Trevino,Harlingen,81.47,229.06,142.88,206.38,578.33,Unlimited,SBD,M,
Boys,82.1,4,Daniel Tirado,San Benito,78.11,201.85,147.42,210.92,560.19,Unlimited,SBD,M,
Boys,82.1,5,Charlie Bell,Edinburg Economedes,80.1,176.9,142.88,215.46,535.24,Unlimited,SBD,M,
Boys,82.1,6,Christopher Torres,Edinburg Vela,80.38,131.54,102.06,176.9,410.5,Unlimited,SBD,M,
Boys,82.1,7,Oliver De La Garza,Brownsville Rivera,81.78,158.76,90.72,158.76,408.23,Unlimited,SBD,M,
Boys,82.1,8,Jesse Melendez,Brownsville Riverview IDEA,80.65,102.06,63.5,102.06,267.62,Unlimited,SBD,M,
Boys,82.1,DQ,Giovanni Gonzalez,Port Isabel,76.48,176.9,,,,Unlimited,SBD,M,
Boys,82.1,DQ,Joshua Rosales,Edinburg North,82.1,206.38,,,,Unlimited,SBD,M,
Boys,82.1,DQ,Jacob Flores,Harlingen South,82.1,,,,,Unlimited,SBD,M,
Boys,82.1,DQ,Seven Moreno,Harlingen South,82.1,,,,,Unlimited,SBD,M,
Boys,89.81,1,Rafael Aguirre,Edinburg North,87,272.16,172.37,238.14,682.66,Unlimited,SBD,M,
Boys,89.81,2,Sterling Tomlin,Harlingen,89.81,208.65,172.37,222.26,603.28,Unlimited,SBD,M,
Boys,89.81,3,Nicholas Gonzalez,Brownsville Rivera,88.54,226.8,165.56,208.65,601.01,Unlimited,SBD,M,
Boys,89.81,4,Adriain Lizcano,Harlingen,86.82,219.99,158.76,208.65,587.4,Unlimited,SBD,M,
Boys,89.81,5,Marc Sanchez #2,San Benito,85.37,206.38,142.88,206.38,555.65,Unlimited,SBD,M,
Boys,89.81,6,Francisco Marichalar,Edinburg Economedes,89.54,206.38,161.03,183.7,551.11,Unlimited,SBD,M,
Boys,89.81,7,Noah Hernandez,Port Isabel,83.19,185.97,142.88,183.7,512.56,Unlimited,SBD,M,
Boys,89.81,8,Jesus Contreras,Port Isabel,84.82,201.85,108.86,188.24,498.95,Unlimited,SBD,M,
Boys,89.81,9,Michael Flores,Edinburg North,88,142.88,120.2,229.06,492.15,Unlimited,SBD,M,
Boys,89.81,10,Joe Perez,Port Isabel,88.54,167.83,108.86,201.85,478.54,Unlimited,SBD,M,
Boys,89.81,11,Gerardo Sanchez,Harlingen,89.54,183.7,129.27,154.22,467.2,Unlimited,SBD,M,
Boys,89.81,12,Marcus Garza,Harlingen South,89.81,183.7,111.13,165.56,460.4,Unlimited,SBD,M,
Boys,89.81,13,Joaquin Espinoza,Brownsville Pace,86.36,165.56,111.13,165.56,442.25,Unlimited,SBD,M,
Boys,89.81,14,Eldrich Amaya,Brownsville Riverview IDEA,83.55,129.27,88.45,165.56,383.29,Unlimited,SBD,M,
Boys,89.81,DQ,Alfredo Morales,Brownsville Pace,89.81,192.78,,,,Unlimited,SBD,M,
Boys,89.81,DQ,Justin Cruz,Edinburg Vela,89.81,,,,,Unlimited,SBD,M,
Boys,99.79,1,Juan Rodriguez,Edinburg Vela,93.44,247.21,197.31,238.14,682.66,Unlimited,SBD,M,
Boys,99.79,2,Anthony Gonzalez #7,Edinburg Economedes,95.16,265.35,170.1,226.8,662.24,Unlimited,SBD,M,
Boys,99.79,3,Isaac Rameriez,San Benito,96.71,254.01,147.42,215.46,616.89,Unlimited,SBD,M,
Boys,99.79,4,Israel Lopez,Brownsville Rivera,99.43,240.4,161.03,204.12,605.55,Unlimited,SBD,M,
Boys,99.79,5,Ramon Montalvo,Harlingen South,95.44,226.8,133.81,206.38,566.99,Unlimited,SBD,M,
Boys,99.79,6,Nick Garza,PSJA Memorial,94.08,204.12,124.74,226.8,555.65,Unlimited,SBD,M,
Boys,99.79,7,Luis Garza,Brownsville Pace,91.08,226.8,124.74,192.78,544.31,Unlimited,SBD,M,
Boys,99.79,8,Ryan Ortiz,Harlingen,97.89,222.26,124.74,195.04,542.04,Unlimited,SBD,M,
Boys,99.79,9,Joseph Perez,Edinburg,95.44,210.92,108.86,195.04,514.83,Unlimited,SBD,M,
Boys,99.79,10,Cesar Casas,Brownsville Riverview IDEA,93.8,156.49,97.52,172.37,426.38,Unlimited,SBD,M,
Boys,99.79,11,Isaac Montiel,Harlingen South,95.07,120.2,104.33,192.78,417.3,Unlimited,SBD,M,
Boys,99.79,12,Arnulfo Hernández,Port Isabel,97.7,147.42,95.25,170.1,412.77,Unlimited,SBD,M,
Boys,99.79,13,Carlos Montemayor,Harlingen South,96.62,197.31,124.74,,322.05,Unlimited,SB,M,
Boys,99.79,14,Franco Melendez,Brownsville Riverview IDEA,93.35,104.33,45.36,111.13,260.82,Unlimited,SBD,M,
Boys,109.77,1,Aydin Torres,Edinburg North,106.96,290.3,206.38,215.46,712.14,Unlimited,SBD,M,
Boys,109.77,2,Nathaniel Navarro,Edinburg North,103.42,276.69,183.7,235.87,696.26,Unlimited,SBD,M,
Boys,109.77,3,Mario Nava,Port Isabel,106.59,249.48,156.49,210.92,616.89,Unlimited,SBD,M,
Boys,109.77,4,Jose Rosas,Brownsville Pace,103.69,226.8,170.1,217.72,614.62,Unlimited,SBD,M,
Boys,109.77,5,Felipe Balderas,Edinburg Economedes,103.06,215.46,165.56,215.46,596.47,Unlimited,SBD,M,
Boys,109.77,6,Ruben Abundis,Edinburg Economedes,104.24,226.8,147.42,219.99,594.21,Unlimited,SBD,M,
Boys,109.77,7,Ismael Garcia,Edinburg Economedes,102.33,226.8,151.95,204.12,582.87,Unlimited,SBD,M,
Boys,109.77,8,Viktor Rodriguez,PSJA Memorial,108.41,226.8,142.88,185.97,555.65,Unlimited,SBD,M,
Boys,109.77,9,Ethan Ruiz,San Benito,101.06,215.46,142.88,181.44,539.77,Unlimited,SBD,M,
Boys,109.77,10,Aaron Izaguirre,PSJA Memorial,106.87,192.78,147.42,197.31,537.51,Unlimited,SBD,M,
Boys,109.77,11,Jose Garcia,Brownsville Pace,106.96,204.12,145.15,181.44,530.7,Unlimited,SBD,M,
Boys,109.77,12,Justin Torres,Edinburg,107.68,199.58,136.08,190.51,526.17,Unlimited,SBD,M,
Boys,109.77,13,Oziel Garza,Brownsville Rivera,109.23,195.04,131.54,199.58,526.17,Unlimited,SBD,M,
Boys,109.77,14,Emilio Gonzalez,PSJA Memorial,108.41,215.46,129.27,165.56,510.29,Unlimited,SBD,M,
Boys,109.77,DQ,Gerardo Carr,Edinburg Vela,101.79,192.78,147.42,,,Unlimited,SBD,M,
Boys,124.74,1,Anthony De Leon,Harlingen,121.38,260.82,183.7,231.33,675.85,Unlimited,SBD,M,
Boys,124.74,2,Luis Varela,Port Isabel,116.66,242.67,163.29,229.06,635.03,Unlimited,SBD,M,
Boys,124.74,3,Ryan Luna,Harlingen South,113.94,240.4,140.61,199.58,580.6,Unlimited,SBD,M,
Boys,124.74,4,Jacob Lopez,Brownsville Rivera,112.49,226.8,147.42,204.12,578.33,Unlimited,SBD,M,
Boys,124.74,5,Esteban Damian,Edinburg,113.04,192.78,151.95,213.19,557.92,Unlimited,SBD,M,
Boys,124.74,6,Carlos Cabrera,Port Isabel,112.85,195.04,163.29,183.7,542.04,Unlimited,SBD,M,
Boys,124.74,7,Christian Perez,Harlingen South,111.49,195.04,127.01,206.38,528.44,Unlimited,SBD,M,
Boys,124.74,8,Adrien Capetillo,PSJA Memorial,118.66,190.51,133.81,197.31,521.63,Unlimited,SBD,M,
Boys,124.74,9,Roman Palomo,Edinburg,110.59,204.12,111.13,183.7,498.95,Unlimited,SBD,M,
Boys,124.74,10,Emmanuel Ramirez,Brownsville Pace,112.49,183.7,120.2,170.1,474,Unlimited,SBD,M,
Boys,124.74,11,Rodolfo Ibarra,Edinburg Vela,115.3,174.63,102.06,183.7,460.4,Unlimited,SBD,M,
Boys,124.74,12,Damian Barrios,Edinburg Economedes,123.29,226.8,,,226.8,Unlimited,S,M,
Boys,124.74,DQ,Kaleb Loredo,Brownsville Pace,124.74,294.84,,,,Unlimited,SBD,M,
Boys,124.74,DQ,Fabian Villanueva,Edinburg Economedes,124.74,156.49,151.95,,,Unlimited,SBD,M,
Boys,139.71,1,Daimien Bramlett,Edinburg Vela,132.54,226.8,133.81,242.67,603.28,Unlimited,SBD,M,
Boys,139.71,2,Leo Garza,Brownsville Rivera,126.1,231.33,124.74,226.8,582.87,Unlimited,SBD,M,
Boys,139.71,3,Robert Cruz,San Benito,131.09,215.46,147.42,181.44,544.31,Unlimited,SBD,M,
Boys,139.71+,1,Marco Diaz,Edinburg Vela,208.2,240.4,278.96,219.99,739.36,Unlimited,SBD,M,
Boys,139.71+,2,Anthony Johnson,Harlingen,140.98,235.87,183.7,235.87,655.44,Unlimited,SBD,M,
Boys,139.71+,3,Ivan Cantu,PSJA Memorial,146.87,190.51,131.54,197.31,519.36,Unlimited,SBD,M,
Boys,139.71+,4,Zeke Torres,Brownsville Rivera,139.75,199.58,131.54,167.83,498.95,Unlimited,SBD,M,
Boys,139.71+,5,Daniel Pena,Brownsville Pace,144.7,142.88,113.4,149.69,405.97,Unlimited,SBD,M,
Boys,139.71+,6,Kevin Sandoval,Brownsville Riverview IDEA,146.78,102.06,65.77,120.2,288.03,Unlimited,SBD,M,
