Division,WeightClassKg,Place,Name,Team,BodyweightKg,Best3SquatKg,Best3BenchKg,Best3DeadliftKg,TotalKg,Equipment,Event,Sex,BirthDate
Girls,44.23,1,Lucinda Lucio,El Maton Tidehaven,42.23,61.23,31.75,72.57,165.56,Unlimited,SBD,F,
Girls,44.23,2,Isabella Gonzales,Warren,44.23,40.82,24.95,63.5,129.27,Unlimited,SBD,F,
Girls,44.23,DQ,Saniyah Richards,Boling,43,,,,,Unlimited,SBD,F,
Girls,47.85,1,Ava Meek,Newton,47.85,95.25,47.63,92.99,235.87,Unlimited,SBD,F,
Girls,47.85,2,Carly Horta,Boling,45.95,79.38,38.56,90.72,208.65,Unlimited,SBD,F,
Girls,47.85,3,Allie Page,Boling,47.22,77.11,45.36,83.91,206.38,Unlimited,SBD,F,
Girls,47.85,4,Bailey Cason,Van Vleck,47.81,79.38,38.56,81.65,199.58,Unlimited,SBD,F,
Girls,47.85,DQ,Kaylie Hodge,Boling,47.63,,,,,Unlimited,SBD,F,
Girls,51.94,1,Rylee Wilson,Boling,51.44,106.59,58.97,108.86,274.42,Unlimited,SBD,F,
Girls,51.94,2,Bethany Mendez,Boling,51.39,97.52,61.23,102.06,260.82,Unlimited,SBD,F,
Girls,51.94,3,Trinitee Strother,Van Vleck,50.76,70.31,38.56,79.38,188.24,Unlimited,SBD,F,
Girls,51.94,DQ,Cate Dilts,Kountze,51.71,,,,,Unlimited,SBD,F,
Girls,56.02,1,Ava Cervantes,Van Vleck,55.7,124.74,68.04,117.93,310.71,Unlimited,SBD,F,
Girls,56.02,2,Dakota Williams,Newton,54.52,95.25,56.7,111.13,263.08,Unlimited,SBD,F,
Girls,56.02,3,Shelby Boudrie,Boling,53.84,95.25,54.43,111.13,260.82,Unlimited,SBD,F,
Girls,56.02,4,Allison Hernandez,Boling,54.11,86.18,63.5,99.79,249.48,Unlimited,SBD,F,
Girls,56.02,5,Katelynn Brockman,Danbury,55.16,81.65,49.9,90.72,222.26,Unlimited,SBD,F,
Girls,56.02,6,Sophie Smith,Warren,54.07,70.31,49.9,74.84,195.04,Unlimited,SBD,F,
Girls,60.1,1,Jakhia David,Newton,58.88,131.54,86.18,138.35,356.07,Unlimited,SBD,F,
Girls,60.1,2,Makyla Patina,El Maton Tidehaven,59.83,104.33,74.84,102.06,281.23,Unlimited,SBD,F,
Girls,60.1,3,Jayci Fiala,Boling,56.84,95.25,52.16,106.59,254.01,Unlimited,SBD,F,
Girls,60.1,4,Maci Jacks,Newton,59.01,99.79,43.09,99.79,242.67,Unlimited,SBD,F,
Girls,60.1,DQ,Alyssa Quintanilla,Danbury,59.78,,,,,Unlimited,SBD,F,
Girls,67.36,1,Leah Selph,Newton,65.54,120.2,70.31,117.93,308.44,Unlimited,SBD,F,
Girls,67.36,2,Marley Howard,Newton,64.27,106.59,52.16,115.67,274.42,Unlimited,SBD,F,
Girls,67.36,3,Aryah Dunn,Newton,65.86,92.99,40.82,79.38,213.19,Unlimited,SBD,F,
Girls,67.36,4,Alicia Boyero,Newton,66.54,79.38,43.09,88.45,210.92,Unlimited,SBD,F,
Girls,67.36,5,Sophie Rodriguez,El Maton Tidehaven,60.28,65.77,47.63,92.99,206.38,Unlimited,SBD,F,
Girls,67.36,6,Rylee Ward,Kountze,65.91,70.31,36.29,88.45,195.04,Unlimited,SBD,F,
Girls,67.36,DQ,Ezmerelda Aguilera,Boling,64.5,99.79,52.16,,,Unlimited,SBD,F,
Girls,67.36,DQ,Joselyn Piwonka,El Maton Tidehaven,63.68,,,,,Unlimited,SBD,F,
Girls,67.36,DQ,Isabella Rodriguez,El Maton Tidehaven,66.04,,,,,Unlimited,SBD,F,
Girls,67.36,DQ,Keslie McKnight,Van Vleck,60.51,83.91,49.9,,,Unlimited,SBD,F,
Girls,67.36,DQ,Madison Schneider,Warren,67.13,,,,,Unlimited,SBD,F,
Girls,75.07,1,Celeste Gutowski,Van Vleck,72.57,151.95,81.65,149.69,383.29,Unlimited,SBD,F,
Girls,75.07,2,Ellie Voulgaris,Boling,74.21,127.01,68.04,124.74,319.78,Unlimited,SBD,F,
Girls,75.07,3,Mariya Fuller,Boling,73.03,115.67,68.04,120.2,303.91,Unlimited,SBD,F,
Girls,75.07,4,Carlysia Gibson,Van Vleck,71.12,106.59,79.38,115.67,301.64,Unlimited,SBD,F,
Girls,75.07,5,Morgan Kielman,Boling,74.39,108.86,63.5,122.47,294.84,Unlimited,SBD,F,
Girls,75.07,6,Creola Handy,Newton,68.81,122.47,65.77,97.52,285.76,Unlimited,SBD,F,
Girls,75.07,7,Isabella Henson,Warren,74.39,106.59,56.7,92.99,256.28,Unlimited,SBD,F,
Girls,75.07,8,Kylah Owens,Kountze,71.85,74.84,61.23,86.18,222.26,Unlimited,SBD,F,
Girls,75.07,9,Aj Gonzales #2,Warren,75.07,65.77,34.02,104.33,204.12,Unlimited,SBD,F,
Girls,75.07,10,Ki-Lynn Barlow,Newton,72.53,77.11,36.29,68.04,181.44,Unlimited,SBD,F,
Girls,82.33,1,Emily Jones,Warren,77.61,140.61,81.65,138.35,360.61,Unlimited,SBD,F,
Girls,82.33,2,Nevaeh Mangum,Van Vleck,80.78,149.69,70.31,113.4,333.39,Unlimited,SBD,F,
Girls,82.33,3,Serenity Suarez,Van Vleck,79.74,136.08,61.23,127.01,324.32,Unlimited,SBD,F,
Girls,82.33,4,Angel Winters,Newton,81.06,108.86,86.18,127.01,322.05,Unlimited,SBD,F,
Girls,82.33,5,Maritza Reyes,Boling,78.93,113.4,65.77,122.47,301.64,Unlimited,SBD,F,
Girls,82.33,6,Janelle Mujica,El Maton Tidehaven,78.43,108.86,58.97,77.11,244.94,Unlimited,SBD,F,
Girls,82.33,7,Karli Ryals,Warren,80.47,90.72,45.36,97.52,233.6,Unlimited,SBD,F,
Girls,82.33,8,Aaliyah Roseman,Newton,76.34,77.11,38.56,97.52,213.19,Unlimited,SBD,F,
Girls,82.33,9,Makaylee Smith,Kountze,76.7,56.7,58.97,72.57,188.24,Unlimited,SBD,F,
Girls,82.33,DQ,Karissa Wilkinson,Warren,82.1,,,,,Unlimited,SBD,F,
Girls,90.04,1,Cerenity Gibson,Van Vleck,88,165.56,90.72,133.81,390.09,Unlimited,SBD,F,
Girls,90.04,2,Jazmin Gómez,Danbury,89.22,120.2,74.84,129.27,324.32,Unlimited,SBD,F,
Girls,90.04,3,Jalia Wilson,Van Vleck,89.13,120.2,74.84,127.01,322.05,Unlimited,SBD,F,
Girls,90.04,DQ,Jenna Penn,Danbury,89.81,,,,,Unlimited,SBD,F,
Girls,90.04,DQ,Kitty Coe,Kountze,89.81,,,,,Unlimited,SBD,F,
Girls,100.02,1,Elisabeth Fowler,Newton,91.9,151.95,104.33,145.15,401.43,Unlimited,SBD,F,
Girls,100.02,2,Zoe Goodman,Kountze,92.9,129.27,54.43,140.61,324.32,Unlimited,SBD,F,
Girls,100.02,3,Rylee Williams,Warren,92.03,95.25,58.97,104.33,258.55,Unlimited,SBD,F,
Girls,110,1,Danica Perkins,Newton,108,145.15,102.06,122.47,369.68,Unlimited,SBD,F,
Girls,110,DQ,Jeslynn Morales,Van Vleck,106.82,,,,,Unlimited,SBD,F,
Girls,110+,1,Hailey Wilkinson,Van Vleck,122.06,136.08,83.91,106.59,326.59,Unlimited,SBD,F,
Girls,110+,2,Macenzee Johns,Newton,115.94,131.54,79.38,111.13,322.05,Unlimited,SBD,F,
Girls,110+,DQ,Adriana Carrera,Van Vleck,118.39,124.74,61.23,,,Unlimited,SBD,F,
