Division,WeightClassKg,Place,Name,Team,BodyweightKg,Best3SquatKg,Best3BenchKg,Best3DeadliftKg,TotalKg,Equipment,Event,Sex,BirthDate
Girls,44.23,1,Diana Alvarez,Paris,43,88.45,47.63,97.52,233.6,Unlimited,SBD,F,
Girls,44.23,2,Aaliyah Potichko,Gilmer,43.54,81.65,45.36,99.79,226.8,Unlimited,SBD,F,
Girls,44.23,3,Julissa Facundo,Leonard,38.1,47.63,22.68,65.77,136.08,Unlimited,SBD,F,
Girls,47.85,1,Kyleigh Pate,Gilmer,47.17,115.67,65.77,106.59,288.03,Unlimited,SBD,F,
Girls,47.85,2,Diana Farfan,Paris,46.27,99.79,63.5,99.79,263.08,Unlimited,SBD,F,
Girls,47.85,3,Sara Westbrook,Leonard,47.63,92.99,61.23,106.59,260.82,Unlimited,SBD,F,
Girls,47.85,4,Fe Terrell,Gilmer,47.63,104.33,49.9,92.99,247.21,Unlimited,SBD,F,
Girls,47.85,5,Josey Swinson,Commerce,47.63,92.99,40.82,99.79,233.6,Unlimited,SBD,F,
Girls,47.85,6,Anna Blassingame,Paris,46.72,88.45,56.7,83.91,229.06,Unlimited,SBD,F,
Girls,47.85,7,Shelby Stickley,Wolfe City,47.17,72.57,40.82,79.38,192.78,Unlimited,SBD,F,
Girls,47.85,8,Kaci Brannon,Royse City,47.17,61.23,29.48,77.11,167.83,Unlimited,SBD,F,
Girls,47.85,9,Araceli Landaverde,Mount Pleasant,46.27,61.23,29.48,72.57,163.29,Unlimited,SBD,F,
Girls,47.85,DQ,Harlyn Hart,Gilmer,46.72,99.79,49.9,,,Unlimited,SBD,F,
Girls,47.85,DQ,Reagan Buchanan,Royse City,47.17,,,,,Unlimited,SBD,F,
Girls,51.94,1,Tk Marshall,Paris,51.48,124.74,79.38,124.74,328.85,Unlimited,SBD,F,
Girls,51.94,2,Peyton Cook,Paris,51.71,104.33,58.97,99.79,263.08,Unlimited,SBD,F,
Girls,51.94,3,Avery Compton,Leonard,51.26,92.99,58.97,102.06,254.01,Unlimited,SBD,F,
Girls,51.94,4,Arlette DeJesus,Mount Pleasant,51.26,83.91,47.63,113.4,244.94,Unlimited,SBD,F,
Girls,51.94,5,Harley Robison,Royse City,49.9,81.65,47.63,95.25,224.53,Unlimited,SBD,F,
Girls,51.94,6,Jordan West,Mount Pleasant,51.71,95.25,40.82,74.84,210.92,Unlimited,SBD,F,
Girls,51.94,7,Riley Coclasure,Cooper,51.71,83.91,29.48,79.38,192.78,Unlimited,SBD,F,
Girls,56.02,1,MiKesha Shorters,Paris,55.25,138.35,58.97,145.15,342.46,Unlimited,SBD,F,
Girls,56.02,2,Jorgia Watson,Royse City,55.79,124.74,72.57,124.74,322.05,Unlimited,SBD,F,
Girls,56.02,3,Madisyn Vicente,Gilmer,55.34,122.47,65.77,120.2,308.44,Unlimited,SBD,F,
Girls,56.02,4,Baleigh Cashion,Paris,55.34,115.67,63.5,111.13,290.3,Unlimited,SBD,F,
Girls,56.02,5,Kailyn Freeman,Leonard,55.79,108.86,63.5,117.93,290.3,Unlimited,SBD,F,
Girls,56.02,6,Kalissa Chambers,Leonard,55.79,108.86,68.04,104.33,281.23,Unlimited,SBD,F,
Girls,56.02,7,Abby Cavender,Leonard,55.79,102.06,61.23,108.86,272.16,Unlimited,SBD,F,
Girls,56.02,8,Serena Whatley,Paris Chisum,54.43,104.33,54.43,111.13,269.89,Unlimited,SBD,F,
Girls,56.02,9,Cambree Fromme,Leonard,55.79,92.99,56.7,102.06,251.74,Unlimited,SBD,F,
Girls,56.02,10,Joselyn Baro,Royse City,54.88,90.72,40.82,104.33,235.87,Unlimited,SBD,F,
Girls,56.02,11,Jasmine Landaverde,Mount Pleasant,53.52,88.45,43.09,102.06,233.6,Unlimited,SBD,F,
Girls,56.02,12,Zoe Zittle,Mount Pleasant,55.79,95.25,38.56,97.52,231.33,Unlimited,SBD,F,
Girls,56.02,13,Kaylee Baxter,Leonard,55.79,90.72,45.36,95.25,231.33,Unlimited,SBD,F,
Girls,60.1,1,Korina Wallace,Leonard,58.51,124.74,88.45,124.74,337.93,Unlimited,SBD,F,
Girls,60.1,2,Macey McAmis,Paris,58.74,136.08,70.31,131.54,337.93,Unlimited,SBD,F,
Girls,60.1,3,Raji Canady,Gilmer,58.06,129.27,72.57,133.81,335.66,Unlimited,SBD,F,
Girls,60.1,4,Alexandra Martinez #3,Mount Pleasant,59.42,138.35,68.04,124.74,331.12,Unlimited,SBD,F,
Girls,60.1,5,Kiera Martin,Paris,58.51,113.4,63.5,117.93,294.84,Unlimited,SBD,F,
Girls,60.1,6,Mariana Gonzalez,Mount Pleasant,59.87,111.13,65.77,117.93,294.84,Unlimited,SBD,F,
Girls,60.1,7,Honesty Bridges,Commerce,59.87,106.59,52.16,113.4,272.16,Unlimited,SBD,F,
Girls,60.1,8,Katie Chappell,Commerce,59.42,106.59,49.9,108.86,265.35,Unlimited,SBD,F,
Girls,60.1,9,Emily Chappell,Commerce,59.87,102.06,52.16,95.25,249.48,Unlimited,SBD,F,
Girls,60.1,10,Danika Maria,Commerce,59.42,83.91,52.16,104.33,240.4,Unlimited,SBD,F,
Girls,60.1,11,Elicya Wilson,Royse City,59.87,81.65,52.16,102.06,235.87,Unlimited,SBD,F,
Girls,60.1,12,Audrie Mendoza,Mount Pleasant,58.97,97.52,38.56,83.91,219.99,Unlimited,SBD,F,
Girls,60.1,13,Emily Marks,Wolfe City,59.87,83.91,49.9,81.65,215.46,Unlimited,SBD,F,
Girls,67.36,1,Skylar Johnson,Pattonville Prairiland,66.22,156.49,77.11,149.69,383.29,Unlimited,SBD,F,
Girls,67.36,2,Ashley McGuire,Paris,63.05,147.42,72.57,142.88,362.87,Unlimited,SBD,F,
Girls,67.36,3,Justine Fagot,Gilmer,64.41,136.08,68.04,142.88,347,Unlimited,SBD,F,
Girls,67.36,4,Abby Grady,Leonard,63.05,127.01,68.04,113.4,308.44,Unlimited,SBD,F,
Girls,67.36,5,Cayelin Crow,Commerce,65.32,115.67,56.7,106.59,278.96,Unlimited,SBD,F,
Girls,67.36,6,Elizabeth Harper,Paris,65.54,92.99,52.16,104.33,249.48,Unlimited,SBD,F,
Girls,67.36,7,Mackenzie Hamann,Wolfe City,67.13,88.45,65.77,79.38,233.6,Unlimited,SBD,F,
Girls,67.36,8,Deseray Maria,Commerce,61.23,88.45,43.09,97.52,229.06,Unlimited,SBD,F,
Girls,67.36,9,Paisley Sloan,Commerce,63.05,77.11,36.29,102.06,215.46,Unlimited,SBD,F,
Girls,67.36,10,Meagan Langley,Cooper,67.13,83.91,43.09,79.38,206.38,Unlimited,SBD,F,
Girls,67.36,11,Emma Morton,Pattonville Prairiland,63.96,79.38,38.56,72.57,190.51,Unlimited,SBD,F,
Girls,75.07,1,Carly Dean,Gilmer,71.67,145.15,74.84,129.27,349.27,Unlimited,SBD,F,
Girls,75.07,2,Alyssa Fugitt,Commerce,70.31,138.35,52.16,129.27,319.78,Unlimited,SBD,F,
Girls,75.07,3,Zakyia Gray,Paris,70.08,129.27,58.97,122.47,310.71,Unlimited,SBD,F,
Girls,75.07,4,Destini Vance,Royse City,71.21,117.93,65.77,124.74,308.44,Unlimited,SBD,F,
Girls,75.07,5,Elizabeth Lockett,Mount Pleasant,69.4,108.86,61.23,115.67,285.76,Unlimited,SBD,F,
Girls,75.07,6,Miriam Nieto,Leonard,68.49,106.59,58.97,108.86,274.42,Unlimited,SBD,F,
Girls,75.07,7,Cristal Silva,Pattonville Prairiland,73.94,92.99,56.7,115.67,265.35,Unlimited,SBD,F,
Girls,75.07,DQ,Chelsey Chavez,Commerce,74.84,115.67,61.23,,,Unlimited,SBD,F,
Girls,82.33,1,Nayeli Jaimes,Mount Pleasant,78.02,158.76,97.52,136.08,392.36,Unlimited,SBD,F,
Girls,82.33,2,Alyssa Fugitt,Commerce,78.47,142.88,58.97,151.95,353.8,Unlimited,SBD,F,
Girls,82.33,3,McKinsee Oviedo,Mount Pleasant,81.19,140.61,79.38,129.27,349.27,Unlimited,SBD,F,
Girls,82.33,4,Nina Holm,Royse City,82.1,117.93,97.52,129.27,344.73,Unlimited,SBD,F,
Girls,82.33,5,Jenna Cook,Mount Pleasant,80.29,117.93,70.31,129.27,317.51,Unlimited,SBD,F,
Girls,82.33,6,MaKinna Sanders,Wolfe City,81.19,124.74,61.23,115.67,301.64,Unlimited,SBD,F,
Girls,82.33,7,Megan Dansby,Paris Chisum,79.83,102.06,45.36,111.13,258.55,Unlimited,SBD,F,
Girls,82.33,8,Reagan Frey,Paris Chisum,79.38,97.52,45.36,92.99,235.87,Unlimited,SBD,F,
Girls,82.33,9,Xitlaly Sanchez,Mount Pleasant,80.29,74.84,43.09,74.84,192.78,Unlimited,SBD,F,
Girls,90.04,1,Aariyana Webb,Gilmer,87.09,176.9,95.25,154.22,426.38,Unlimited,SBD,F,
Girls,90.04,2,Lauren Green,Gilmer,89.36,136.08,68.04,145.15,349.27,Unlimited,SBD,F,
Girls,90.04,3,Ashlyn Roberts,Royse City,86.64,142.88,74.84,129.27,347,Unlimited,SBD,F,
Girls,90.04,4,Jasmine Ramirez,Commerce,87.54,122.47,58.97,106.59,288.03,Unlimited,SBD,F,
Girls,90.04,5,Leilin Hamner,Paris,89.13,106.59,56.7,104.33,267.62,Unlimited,SBD,F,
Girls,90.04,6,Alyssa Duran,Wolfe City,89.81,102.06,54.43,99.79,256.28,Unlimited,SBD,F,
Girls,100.02,1,Deonaka Jones,Gilmer,98.88,167.83,92.99,131.54,392.36,Unlimited,SBD,F,
Girls,100.02,2,Keke Reynolds,Commerce,97.07,131.54,63.5,149.69,344.73,Unlimited,SBD,F,
Girls,100.02,3,Lexi Stanbery,Wolfe City,94.8,140.61,77.11,104.33,322.05,Unlimited,SBD,F,
Girls,100.02,4,Emma McCarter,Paris Chisum,97.52,99.79,49.9,104.33,254.01,Unlimited,SBD,F,
Girls,100.02,5,Cadie Gray,Pattonville Prairiland,99.34,65.77,49.9,77.11,192.78,Unlimited,SBD,F,
Girls,100.02,DQ,Marina Pichardo,Royse City,99.79,,,,,Unlimited,SBD,F,
Girls,117.71,1,Emma Thurman,Wolfe City,107.5,181.44,90.72,136.08,408.23,Unlimited,SBD,F,
Girls,117.71,2,Cara Palmer,Royse City,110.68,154.22,72.57,136.08,362.87,Unlimited,SBD,F,
Girls,117.71,3,Tymia Browner,Paris,112.49,145.15,83.91,133.81,362.87,Unlimited,SBD,F,
Girls,117.71,4,Laney Vanderburg,Paris Chisum,116.57,147.42,79.38,124.74,351.53,Unlimited,SBD,F,
Girls,117.71+,1,Avery Crossland,Leonard,127.91,226.8,124.74,167.83,519.36,Unlimited,SBD,F,
Girls,117.71+,2,Taylor Williams,Gilmer,120.66,158.76,81.65,140.61,381.02,Unlimited,SBD,F,
Girls,117.71+,3,Hannah Manning,Royse City,127.46,147.42,79.38,127.01,353.8,Unlimited,SBD,F,
