Division,WeightClassKg,Place,Name,Team,BodyweightKg,Best3SquatKg,Best3BenchKg,Best3DeadliftKg,TotalKg,Equipment,Event,Sex,BirthDate
Boys,51.71,1,Cody Ferguson,Madisonville,51.35,92.99,49.9,106.59,249.48,Single-ply,SBD,M,
Boys,51.71,2,Josh Robinson,Centerville,46.36,83.91,43.09,92.99,219.99,Single-ply,SBD,M,
Boys,55.79,1,Jacob Brown,Livingston,53.71,92.99,61.23,129.27,283.5,Single-ply,SBD,M,
Boys,55.79,2,Nicholas Caproni,Rosebud-Lott,54.93,83.91,54.43,102.06,240.4,Single-ply,SBD,M,
Boys,59.87,1,Hayden Isbell,Teague,57.88,161.03,97.52,167.83,426.38,Single-ply,SBD,M,
Boys,59.87,2,Kyle Wright,Livingston,59.33,117.93,68.04,142.88,328.85,Single-ply,SBD,M,
Boys,67.13,1,Harris Sherrod,Jewett Leon,64.95,226.8,102.06,219.99,548.85,Single-ply,SBD,M,
Boys,67.13,2,Justin Legg,Livingston,66.32,201.85,113.4,208.65,523.9,Single-ply,SBD,M,
Boys,67.13,3,Juan Bernal,Teague,65.41,145.15,86.18,154.22,385.55,Single-ply,SBD,M,
Boys,67.13,4,Rayce Hudson,Madisonville,65.32,142.88,81.65,147.42,371.95,Single-ply,SBD,M,
Boys,67.13,5,Carson Sifford,Teague,61.28,136.08,77.11,147.42,360.61,Single-ply,SBD,M,
Boys,67.13,6,Sye Lytle,Centerville,62.78,127.01,72.57,149.69,349.27,Single-ply,SBD,M,
Boys,67.13,7,Daniel Villareal,Centerville,63.09,127.01,90.72,127.01,344.73,Single-ply,SBD,M,
Boys,67.13,8,Cody Morgan,Centerville,60.69,102.06,79.38,142.88,324.32,Single-ply,SBD,M,
Boys,67.13,9,James Webb,Centerville,61.6,102.06,79.38,120.2,301.64,Single-ply,SBD,M,
Boys,67.13,10,Zachary Baer,Normangee,61.51,102.06,63.5,122.47,288.03,Single-ply,SBD,M,
Boys,67.13,11,Kaleb Walter,Navasota,61.05,92.99,65.77,113.4,272.16,Single-ply,SBD,M,
Boys,67.13,DQ,Carlose Sauceddo,Rosebud-Lott,67.13,,,,,Single-ply,SBD,M,
Boys,67.13,DQ,Nate Pedigo,Jewett Leon,66.9,,,,,Single-ply,SBD,M,
Boys,74.84,1,Bobby Washington,Franklin,72.03,185.97,92.99,174.63,453.59,Single-ply,SBD,M,
Boys,74.84,2,Rory William,Livingston,74.8,142.88,90.72,181.44,415.04,Single-ply,SBD,M,
Boys,74.84,3,Spencer Yellott,Normangee,69.9,154.22,92.99,149.69,396.89,Single-ply,SBD,M,
Boys,74.84,4,Joel Castaneda,Navasota,70.67,158.76,83.91,136.08,378.75,Single-ply,SBD,M,
Boys,74.84,5,Brandon Nemelka,Jonesboro,70.35,136.08,70.31,154.22,360.61,Single-ply,SBD,M,
Boys,74.84,6,Kaleb Sanders,Jonesboro,73.07,117.93,92.99,147.42,358.34,Single-ply,SBD,M,
Boys,74.84,7,Dustin Perkins,Franklin,73.75,127.01,74.84,154.22,356.07,Single-ply,SBD,M,
Boys,74.84,8,Cameron Pate,Centerville,71.03,142.88,74.84,133.81,351.53,Single-ply,SBD,M,
Boys,74.84,9,Brayden Williams,Madisonville,69.31,129.27,74.84,138.35,342.46,Single-ply,SBD,M,
Boys,74.84,10,Anthony Alvarez,Centerville,67.63,113.4,74.84,133.81,322.05,Single-ply,SBD,M,
Boys,74.84,11,Tyler Wilson #8,Jonesboro,73.53,113.4,58.97,136.08,308.44,Single-ply,SBD,M,
Boys,74.84,12,Nicolas Castaneda,Navasota,71.03,102.06,61.23,133.81,297.1,Single-ply,SBD,M,
Boys,74.84,13,Christopher Tejeda,Navasota,72.76,92.99,61.23,136.08,290.3,Single-ply,SBD,M,
Boys,74.84,DQ,Joseph Painter,Navasota,74.84,,,,,Single-ply,SBD,M,
Boys,74.84,DQ,Cole Fiore,Madisonville,74.84,,,,,Single-ply,SBD,M,
Boys,74.84,DQ,Nathan Bosley,Normangee,74.84,,,,,Single-ply,SBD,M,
Boys,74.84,DQ,Luis Guillen,Jewett Leon,73.98,,,,,Single-ply,SBD,M,
Boys,82.1,1,Patrick Brazzell,Madisonville,78.74,192.78,117.93,204.12,514.83,Single-ply,SBD,M,
Boys,82.1,2,Landon Leggett,Livingston,81.37,183.7,113.4,185.97,483.08,Single-ply,SBD,M,
Boys,82.1,3,Mason Hardy,Normangee,78.74,165.56,102.06,167.83,435.45,Single-ply,SBD,M,
Boys,82.1,4,Jaylen Myles,Navasota,75.57,181.44,88.45,163.29,433.18,Single-ply,SBD,M,
Boys,82.1,5,Jamarion Frear,Navasota,77.2,167.83,86.18,176.9,430.91,Single-ply,SBD,M,
Boys,82.1,DQ,Joshua Lerma,Navasota,82.05,,,,,Single-ply,SBD,M,
Boys,82.1,DQ,Braelin Whitley,Navasota,81.28,,,,,Single-ply,SBD,M,
Boys,82.1,DQ,Harrison Hobbs,Centerville,77.61,,,,,Single-ply,SBD,M,
Boys,89.81,1,Walter Beltran,Jewett Leon,85.32,235.87,120.2,219.99,576.06,Single-ply,SBD,M,
Boys,89.81,2,Reese Young,Teague,88.81,190.51,113.4,185.97,489.88,Single-ply,SBD,M,
Boys,89.81,3,Xavier Mindiola,Livingston,87.27,172.37,124.74,176.9,474,Single-ply,SBD,M,
Boys,89.81,4,Samuel Taggart,Rosebud-Lott,85.46,167.83,99.79,158.76,426.38,Single-ply,SBD,M,
Boys,89.81,5,Victor Torres,Navasota,88.04,151.95,83.91,190.51,426.38,Single-ply,SBD,M,
Boys,89.81,6,Shelton Rayford,Navasota,89.4,88.45,61.23,129.27,278.96,Single-ply,SBD,M,
Boys,89.81,7,Trezdon Ruiz,Navasota,82.37,83.91,43.09,61.23,188.24,Single-ply,SBD,M,
Boys,99.79,1,Bryson Crowley,Centerville,97.34,215.46,129.27,210.92,555.65,Single-ply,SBD,M,
Boys,99.79,2,Junior Molina,Normangee,94.89,190.51,111.13,190.51,492.15,Single-ply,SBD,M,
Boys,99.79,3,Marco Mendoza,Navasota,95.3,192.78,97.52,199.58,489.88,Single-ply,SBD,M,
Boys,99.79,4,Julius Plotts,Normangee,92.26,188.24,117.93,176.9,483.08,Single-ply,SBD,M,
Boys,99.79,5,Tyler George,Madisonville,96.25,181.44,108.86,174.63,464.93,Single-ply,SBD,M,
Boys,99.79,6,Alexander Santos #2,Navasota,92.35,179.17,83.91,174.63,437.72,Single-ply,SBD,M,
Boys,99.79,7,Christian Edwards,Rosebud-Lott,94.44,124.74,83.91,158.76,367.41,Single-ply,SBD,M,
Boys,99.79,8,Zachary Shesler,Rosebud-Lott,95.89,136.08,61.23,151.95,349.27,Single-ply,SBD,M,
Boys,99.79,9,Tristain Olson,Navasota,95.75,111.13,70.31,151.95,333.39,Single-ply,SBD,M,
Boys,99.79,DQ,Trey Weiler,Jewett Leon,97.11,,,,,Single-ply,SBD,M,
Boys,99.79,DQ,Callan Shrode,Jewett Leon,96.66,,,,,Single-ply,SBD,M,
Boys,99.79,DQ,Marcos Zamora,Teague,98.34,,,,,Single-ply,SBD,M,
Boys,109.77,1,Gelico Green,Teague,102.24,254.01,145.15,258.55,657.71,Single-ply,SBD,M,
Boys,109.77,2,Cody Duewall,Franklin,107.32,226.8,127.01,183.7,537.51,Single-ply,SBD,M,
Boys,109.77,3,Keegan Wilson,Franklin,100.33,192.78,106.59,190.51,489.88,Single-ply,SBD,M,
Boys,109.77,4,Andrew Elmore,Franklin,106.19,188.24,117.93,161.03,467.2,Single-ply,SBD,M,
Boys,109.77,5,Eduardo Perez,Navasota,106.05,174.63,104.33,183.7,462.66,Single-ply,SBD,M,
Boys,109.77,6,Wyatt Faulkner,Jonesboro,107.55,170.1,92.99,188.24,451.32,Single-ply,SBD,M,
Boys,109.77,7,D'Ante Thomas,Madisonville,109.13,142.88,74.84,145.15,362.87,Single-ply,SBD,M,
Boys,109.77,8,Joshua Davis #3,Navasota,109.36,129.27,74.84,133.81,337.93,Single-ply,SBD,M,
Boys,109.77,9,Jayden Shepard,Navasota,105.96,88.45,65.77,129.27,283.5,Single-ply,SBD,M,
Boys,109.77,DQ,Micheil Harrell,Madisonville,109.77,,,,,Single-ply,SBD,M,
Boys,109.77,DQ,Jer'Tavius Brown,Madisonville,109.72,,,,,Single-ply,SBD,M,
Boys,124.74,1,Bj Kelly,Centerville,112.22,204.12,142.88,188.24,535.24,Single-ply,SBD,M,
Boys,124.74,2,Dillian Brent,Centerville,111.67,183.7,133.81,195.04,512.56,Single-ply,SBD,M,
Boys,124.74,3,Justin Herron,Madisonville,121.93,197.31,113.4,161.03,471.74,Single-ply,SBD,M,
Boys,124.74,4,Jose Lopez,Navasota,121.29,179.17,97.52,192.78,469.47,Single-ply,SBD,M,
Boys,124.74,5,Douglas Franklin,Navasota,121.38,88.45,70.31,117.93,276.69,Single-ply,SBD,M,
Boys,124.74+,1,Terry Reel,Teague,127.28,219.99,113.4,199.58,532.97,Single-ply,SBD,M,
Boys,124.74+,2,Orlando Arellano,Navasota,135.35,185.97,124.74,181.44,492.15,Single-ply,SBD,M,
Boys,124.74+,3,Easton Fulton,Rosebud-Lott,129.32,199.58,106.59,181.44,487.61,Single-ply,SBD,M,
Boys,124.74+,4,Jacob Nutt,Rosebud-Lott,144.74,185.97,102.06,190.51,478.54,Single-ply,SBD,M,
Boys,124.74+,5,Jy'Eric Houston,Navasota,140.43,197.31,97.52,156.49,451.32,Single-ply,SBD,M,
Boys,124.74+,DQ,Hillard Morning,Madisonville,178.99,,,,,Single-ply,SBD,M,
