Division,WeightClassKg,Place,Name,Team,BodyweightKg,Best3SquatKg,Best3BenchKg,Best3DeadliftKg,TotalKg,Equipment,Event,Sex
Boys,51.71,1,Robert Parra,Carrollton Creekview,51.07,113.4,70.31,142.88,326.59,Single-ply,SBD,M
Boys,51.71,2,Javier Garcia #5,Lancaster,49.53,81.65,65.77,108.86,256.28,Single-ply,SBD,M
Boys,51.71,3,Michael Brown #8,Lancaster,51.17,86.18,54.43,111.13,251.74,Single-ply,SBD,M
Boys,59.87,1,Darius Rivera,Princeton,55.88,161.03,90.72,167.83,419.57,Single-ply,SBD,M
Boys,55.79,2,Dillan Cromeens,Nevada Community,55.34,138.35,77.11,147.42,362.87,Single-ply,SBD,M
Boys,59.87,3,Christian Castillo,Little Elm,55.97,138.35,74.84,138.35,351.53,Single-ply,SBD,M
Boys,55.79,4,Rj Gilbert,Sanger,55.52,113.4,61.23,122.47,297.1,Single-ply,SBD,M
Boys,55.79,5,Theo Serrano #2,Quinlan Ford,55.34,102.06,49.9,136.08,288.03,Single-ply,SBD,M
Boys,59.87,6,Jason St John,Garland Rowlett,55.97,74.84,63.5,97.52,235.87,Single-ply,SBD,M
Boys,55.79,DQ,Tyler Dritchler,Prosper,54.07,83.91,,68.04,,Single-ply,SBD,M
Boys,67.13,1,Gashia Moua,Quinlan Ford,60.06,154.22,88.45,172.37,415.04,Single-ply,SBD,M
Boys,59.87,2,Grant Carter,Sanger,57.42,142.88,81.65,136.08,360.61,Single-ply,SBD,M
Boys,59.87,3,Josh Secrest,Sanger,58.97,113.4,68.04,136.08,317.51,Single-ply,SBD,M
Boys,67.13,1,Will Carter,Sanger,65.95,181.44,117.93,192.78,492.15,Single-ply,SBD,M
Boys,67.13,2,Jeffrey McLeod,Garland Rowlett,66.86,151.95,95.25,206.38,453.59,Single-ply,SBD,M
Boys,74.84,3,Armahn Mathis,Carrollton Ranchview,67.22,161.03,88.45,156.49,405.97,Single-ply,SBD,M
Boys,74.84,4,Savon Miles,Princeton,67.22,151.95,95.25,151.95,399.16,Single-ply,SBD,M
Boys,67.13,5,Alwin Crawford,Northwest Nelson,62.6,145.15,83.91,149.69,378.75,Single-ply,SBD,M
Boys,67.13,6,Keegan Brewer,Lake Dallas,64.23,124.74,77.11,136.08,337.93,Single-ply,SBD,M
Boys,74.84,7,Francisco Muniz,Lake Dallas,67.22,124.74,72.57,136.08,333.39,Single-ply,SBD,M
Boys,74.84,8,Percy Carr,Lancaster,67.31,108.86,90.72,117.93,317.51,Single-ply,SBD,M
Boys,67.13,9,Elmer Porras,Lake Dallas,66.68,102.06,72.57,120.2,294.84,Single-ply,SBD,M
Boys,67.13,10,Emmanuel England,Lancaster,61.69,104.33,63.5,122.47,290.3,Single-ply,SBD,M
Boys,82.1,1,Kyle Kiser,Quinlan Ford,75.02,226.8,147.42,226.8,601.01,Single-ply,SBD,M
Boys,74.84,2,Johnson Dang,Garland Rowlett,74.21,174.63,83.91,183.7,442.25,Single-ply,SBD,M
Boys,74.84,3,Aurelio Romo,Carrollton Creekview,68.49,154.22,99.79,170.1,424.11,Single-ply,SBD,M
Boys,82.1,4,Q Houston,Prosper,75.02,163.29,102.06,142.88,408.23,Single-ply,SBD,M
Boys,74.84,5,Darryl Finch,Carrollton Creekview,69.49,136.08,90.72,165.56,392.36,Single-ply,SBD,M
Boys,74.84,6,Wade Woodard,Prosper,71.67,145.15,108.86,131.54,385.55,Single-ply,SBD,M
Boys,82.1,7,Trey Jackson,Princeton,75.02,133.81,97.52,151.95,383.29,Single-ply,SBD,M
Boys,74.84,8,Cyle Ferrell,Nevada Community,74.3,136.08,102.06,140.61,378.75,Single-ply,SBD,M
Boys,74.84,9,Alexeev Dismuke,Lancaster,74.39,142.88,92.99,142.88,378.75,Single-ply,SBD,M
Boys,74.84,10,Emory Nelson,Carrollton Creekview,71.21,136.08,92.99,147.42,376.48,Single-ply,SBD,M
Boys,74.84,11,Desmond Meredith,Garland Rowlett,74.03,115.67,83.91,170.1,369.68,Single-ply,SBD,M
Boys,74.84,12,Connor Wiser,Nevada Community,70.31,136.08,81.65,138.35,356.07,Single-ply,SBD,M
Boys,74.84,13,Justin DeLeon,Nevada Community,70.4,122.47,83.91,142.88,349.27,Single-ply,SBD,M
Boys,74.84,14,Dejour Gabriel,Lake Dallas,74.03,120.2,79.38,136.08,335.66,Single-ply,SBD,M
Boys,74.84,15,Noel Sithole,Prosper,72.85,113.4,65.77,142.88,322.05,Single-ply,SBD,M
Boys,74.84,16,Bradon Brister,Quinlan Ford,70.76,113.4,70.31,95.25,278.96,Single-ply,SBD,M
Boys,74.84,17,Austin Kessler,Prosper,70.4,65.77,56.7,65.77,188.24,Single-ply,SBD,M
Boys,82.1,1,James Silkey,Quinlan Ford,81.01,204.12,136.08,181.44,521.63,Single-ply,SBD,M
Boys,82.1,2,Joel Kabongo,Northwest Nelson,81.65,204.12,117.93,197.31,519.36,Single-ply,SBD,M
Boys,82.1,3,Jordan Ortiz,Northwest Nelson,81.65,201.85,111.13,192.78,505.76,Single-ply,SBD,M
Boys,82.1,4,Michael Tsapos,Northwest Nelson,77.56,204.12,113.4,172.37,489.88,Single-ply,SBD,M
Boys,82.1,5,Edger Gomez,Garland Rowlett,81.1,183.7,120.2,174.63,478.54,Single-ply,SBD,M
Boys,82.1,6,Trent Williams,Princeton,80.01,183.7,106.59,172.37,462.66,Single-ply,SBD,M
Boys,82.1,7,Malcolm Frederick,Carrollton Creekview,75.39,181.44,86.18,181.44,449.06,Single-ply,SBD,M
Boys,89.81,8,Brandon Melton,Quinlan Ford,82.28,170.1,83.91,172.37,426.38,Single-ply,SBD,M
Boys,82.1,9,Cameron Wiser,Nevada Community,80.92,163.29,97.52,163.29,424.11,Single-ply,SBD,M
Boys,82.1,10,Jailen Garrett,Northwest Nelson,75.75,151.95,92.99,161.03,405.97,Single-ply,SBD,M
Boys,82.1,11,David Hinch,Little Elm,78.29,151.95,102.06,151.95,405.97,Single-ply,SBD,M
Boys,82.1,12,Tristan Price #2,Carrollton Creekview,75.93,156.49,79.38,156.49,392.36,Single-ply,SBD,M
Boys,89.81,1,Derek Shelby,Sanger,86.36,213.19,147.42,213.19,573.79,Single-ply,SBD,M
Boys,89.81,2,Keith Ngonda,Little Elm,87.82,226.8,104.33,204.12,535.24,Single-ply,SBD,M
Boys,89.81,3,Denzel Lewis,Lancaster,85.37,174.63,122.47,199.58,496.68,Single-ply,SBD,M
Boys,89.81,4,Chandler Schwing,Quinlan Ford,84.55,167.83,90.72,167.83,426.38,Single-ply,SBD,M
Boys,89.81,5,Jerry McNeil,Quinlan Ford,89.63,158.76,113.4,154.22,426.38,Single-ply,SBD,M
Boys,89.81,6,Marcus Haskins,Prosper,85.55,142.88,92.99,167.83,403.7,Single-ply,SBD,M
Boys,89.81,7,Hunter Blanton,Lake Dallas,82.74,140.61,102.06,147.42,390.09,Single-ply,SBD,M
Boys,99.79,1,Joey Clegg,Garland Rowlett,97.61,219.99,138.35,226.8,585.13,Single-ply,SBD,M
Boys,99.79,2,Logan Teel,Princeton,98.02,213.19,117.93,208.65,539.77,Single-ply,SBD,M
Boys,99.79,3,Darius Jones #4,Lancaster,98.7,195.04,106.59,224.53,526.17,Single-ply,SBD,M
Boys,99.79,4,Conner Barnes,Sanger,95.8,201.85,136.08,165.56,503.49,Single-ply,SBD,M
Boys,99.79,5,Colton Gillespie,Garland Rowlett,93.98,181.44,104.33,210.92,496.68,Single-ply,SBD,M
Boys,99.79,6,Bobby Jones,Northwest Nelson,94.8,188.24,108.86,192.78,489.88,Single-ply,SBD,M
Boys,109.77,7,Payton Thompson,Princeton,99.97,197.31,106.59,181.44,485.34,Single-ply,SBD,M
Boys,99.79,8,Jake Johnson #3,Garland Rowlett,94.8,188.24,97.52,197.31,483.08,Single-ply,SBD,M
Boys,99.79,9,Mitchell Withrow,Lake Dallas,92.26,172.37,117.93,181.44,471.74,Single-ply,SBD,M
Boys,99.79,10,Phillip Hinajosa,Carrollton Creekview,90.9,195.04,90.72,170.1,455.86,Single-ply,SBD,M
Boys,99.79,11,Thomas Munoz,Quinlan Ford,98.79,172.37,124.74,158.76,455.86,Single-ply,SBD,M
Boys,99.79,12,Rickey Nelson,Lancaster,94.53,181.44,90.72,151.95,424.11,Single-ply,SBD,M
Boys,99.79,13,Mario Cardenas,Carrollton Creekview,94.26,165.56,102.06,154.22,421.84,Single-ply,SBD,M
Boys,99.79,14,Grayson Briney,Sanger,95.16,170.1,92.99,158.76,421.84,Single-ply,SBD,M
Boys,99.79,15,Chase Stanley,Lake Dallas,95.62,131.54,102.06,133.81,367.41,Single-ply,SBD,M
Boys,109.77,1,Fritz Hull,Prosper,103.87,213.19,136.08,208.65,557.92,Single-ply,SBD,M
Boys,109.77,2,Shannon Simpson II,Lancaster,107.77,249.48,106.59,188.24,544.31,Single-ply,SBD,M
Boys,109.77,3,Skyler Reneau,Northwest Nelson,103.87,206.38,124.74,204.12,535.24,Single-ply,SBD,M
Boys,109.77,4,Landon Hallmark,Little Elm,101.24,199.58,102.06,210.92,512.56,Single-ply,SBD,M
Boys,109.77,5,Ahmon Mayes,Prosper,108.77,183.7,113.4,195.04,492.15,Single-ply,SBD,M
Boys,109.77,6,Austin Young,Carrollton Creekview,102.97,163.29,111.13,204.12,478.54,Single-ply,SBD,M
Boys,109.77,7,John Donaghex,Carrollton Creekview,106.78,181.44,111.13,181.44,474,Single-ply,SBD,M
Boys,109.77,8,Chris Garcia #9,Quinlan Ford,109.04,192.78,113.4,165.56,471.74,Single-ply,SBD,M
Boys,124.74,9,Austen Lange,Sanger,109.95,174.63,111.13,181.44,467.2,Single-ply,SBD,M
Boys,109.77,10,Geremy Williams,Clarksville,107.68,163.29,106.59,181.44,451.32,Single-ply,SBD,M
Boys,109.77,11,Ryan Langley,Sanger,101.15,181.44,102.06,154.22,437.72,Single-ply,SBD,M
Boys,109.77,12,Micah Olsen,Garland Rowlett,103.51,156.49,97.52,165.56,419.57,Single-ply,SBD,M
Boys,109.77,13,Quincy Johnson,Nevada Community,102.15,102.06,86.18,136.08,324.32,Single-ply,SBD,M
Boys,124.74,1,David Allen #6,Quinlan Ford,116.75,226.8,120.2,229.06,576.06,Single-ply,SBD,M
Boys,124.74,2,Kyle Scheffler,Sanger,121.93,208.65,142.88,213.19,564.72,Single-ply,SBD,M
Boys,124.74,3,Zak Mirza,Garland Rowlett,114.76,192.78,131.54,192.78,517.1,Single-ply,SBD,M
Boys,124.74,4,Jermaine Emmers,Clarksville,121.56,204.12,113.4,192.78,510.29,Single-ply,SBD,M
Boys,124.74,5,Connor O'Neil,Northwest Nelson,110.22,188.24,113.4,197.31,498.95,Single-ply,SBD,M
Boys,124.74,6,Brandon Glenn,Carrollton Ranchview,112.58,183.7,104.33,183.7,471.74,Single-ply,SBD,M
Boys,124.74,7,Marc Miller,Garland Rowlett,121.02,215.46,99.79,145.15,460.4,Single-ply,SBD,M
Boys,124.74,8,Hayden Hawkins,Northwest Nelson,111.58,158.76,92.99,158.76,410.5,Single-ply,SBD,M
Boys,124.74,9,Rebel Venglarik,Carrollton Ranchview,121.93,136.08,99.79,142.88,378.75,Single-ply,SBD,M
Boys,124.74,10,Reginald Merritt,Lancaster,124.65,142.88,92.99,142.88,378.75,Single-ply,SBD,M
Boys,124.74,11,Markeist Scott,Lancaster,120.75,142.88,81.65,151.95,376.48,Single-ply,SBD,M
Boys,124.74,12,Tristan Bennett,Carrollton Ranchview,110.68,129.27,81.65,147.42,358.34,Single-ply,SBD,M
Boys,124.74,13,CJ Mendoza #2,Carrollton Ranchview,113.4,111.13,77.11,131.54,319.78,Single-ply,SBD,M
Boys,124.74+,1,Shakeim Woodberry,Clarksville,129.73,265.35,167.83,226.8,659.98,Single-ply,SBD,M
Boys,124.74+,2,Trey Marks,Little Elm,135.71,244.94,142.88,215.46,603.28,Single-ply,SBD,M
Boys,124.74+,3,Anders Huizenga,Northwest Nelson,134.72,176.9,149.69,213.19,539.77,Single-ply,SBD,M
Boys,124.74+,4,Riley Chenault,Lake Dallas,132,204.12,106.59,204.12,514.83,Single-ply,SBD,M
Boys,124.74+,5,Duke Smith,Northwest Nelson,132.9,208.65,108.86,188.24,505.76,Single-ply,SBD,M
Boys,124.74+,6,Jerry Kha,Carrollton Creekview,147.78,199.58,81.65,158.76,439.98,Single-ply,SBD,M
Boys,124.74+,7,Jaxon Loving,Prosper,128.82,158.76,,,158.76,Single-ply,S,M
Boys,,NS,Jacob Galloway,Lake Dallas,,,,,,Single-ply,S,M
Boys,,NS,Holder Keck,Lake Dallas,,,,,,Single-ply,S,M
Boys,,NS,Kourtlan Courtanay,Lake Dallas,,,,,,Single-ply,S,M
Boys,,NS,Luis Lopez #2,Prosper,,,,,,Single-ply,S,M
Boys,,NS,Noah Robertson,Prosper,,,,,,Single-ply,S,M
