Division,WeightClassKg,Place,Name,Team,BodyweightKg,Best3SquatKg,Best3BenchKg,Best3DeadliftKg,TotalKg,Equipment,Event,Sex,BirthDate
Boys,51.71,1,Coby Hoang,Amarillo Highland Park,45.36,79.38,38.56,79.38,197.31,Unlimited,SBD,M,
Boys,55.79,1,Adin Rodriguez,Tulia,55.34,145.15,83.91,156.49,385.55,Unlimited,SBD,M,
Boys,55.79,2,Elian Ramos,Borger,55.47,124.74,70.31,115.67,310.71,Unlimited,SBD,M,
Boys,59.87,1,Alberto Olivas,Amarillo Highland Park,59.42,149.69,68.04,136.08,353.8,Unlimited,SBD,M,
Boys,59.87,2,Charlie Montgomery,Vega,56.25,136.08,77.11,129.27,342.46,Unlimited,SBD,M,
Boys,59.87,3,Landon Cousins,Vega,58.97,104.33,49.9,117.93,272.16,Unlimited,SBD,M,
Boys,67.13,1,Kade Speer,Dalhart,66.86,170.1,115.67,183.7,469.47,Unlimited,SBD,M,
Boys,67.13,2,Dominic Galvan,Amarillo Highland Park,64.86,158.76,102.06,190.51,451.32,Unlimited,SBD,M,
Boys,67.13,3,Lane Hoppe,Dalhart,67,165.56,108.86,176.9,451.32,Unlimited,SBD,M,
Boys,67.13,4,Cole Kelso,Dalhart,65.14,170.1,99.79,170.1,439.98,Unlimited,SBD,M,
Boys,67.13,5,Adrian Martinez #20,Vega,66.13,151.95,83.91,167.83,403.7,Unlimited,SBD,M,
Boys,67.13,6,Dylan Yankee,Borger,66.63,147.42,90.72,158.76,396.89,Unlimited,SBD,M,
Boys,67.13,7,Aaron Brown,Amarillo Highland Park,65.32,138.35,79.38,142.88,360.61,Unlimited,SBD,M,
Boys,67.13,8,Victor Henriquez,Borger,64.23,106.59,68.04,120.2,294.84,Unlimited,SBD,M,
Boys,67.13,DQ,Rylan Smith,Borger,66.95,,,,,Unlimited,SBD,M,
Boys,74.84,1,Fabio Perez,Dalhart,71.94,217.72,142.88,181.44,542.04,Unlimited,SBD,M,
Boys,74.84,2,Kaleb Speer,Dalhart,71.67,151.95,95.25,174.63,421.84,Unlimited,SBD,M,
Boys,74.84,3,Cason Lamm,Vega,68.76,167.83,92.99,158.76,419.57,Unlimited,SBD,M,
Boys,74.84,4,Mel Henninger,Borger,74.43,138.35,88.45,140.61,367.41,Unlimited,SBD,M,
Boys,74.84,5,Alejandro Sanchez,Amarillo Highland Park,70.31,142.88,79.38,142.88,365.14,Unlimited,SBD,M,
Boys,74.84,6,Aidan Vega,Tulia,71.67,104.33,68.04,113.4,285.76,Unlimited,SBD,M,
Boys,74.84,DQ,Tyler Brooks,Borger,74.57,,,,,Unlimited,SBD,M,
Boys,82.1,1,Junior Garcia,Amarillo Highland Park,79.83,222.26,129.27,224.53,576.06,Unlimited,SBD,M,
Boys,82.1,2,Micheal Thies,Panhandle,78.02,201.85,149.69,192.78,544.31,Unlimited,SBD,M,
Boys,82.1,3,Sean Wilson,Borger,81.6,219.99,122.47,201.85,544.31,Unlimited,SBD,M,
Boys,82.1,4,Walker TeVelde,Vega,78.47,167.83,122.47,167.83,458.13,Unlimited,SBD,M,
Boys,82.1,5,Ty Bice,Tulia,82.01,163.29,102.06,185.97,451.32,Unlimited,SBD,M,
Boys,82.1,6,Degyn Smith,Panhandle,81.47,176.9,97.52,167.83,442.25,Unlimited,SBD,M,
Boys,82.1,7,Elias Galvan,Amarillo Highland Park,80.74,136.08,95.25,167.83,399.16,Unlimited,SBD,M,
Boys,82.1,8,Kaleb Bice,Tulia,80.29,120.2,102.06,158.76,381.02,Unlimited,SBD,M,
Boys,89.81,1,Alex Penton,Dalhart,89.45,238.14,149.69,219.99,607.81,Unlimited,SBD,M,
Boys,89.81,2,Jesse Butcher,Amarillo Highland Park,88.45,213.19,165.56,226.8,605.55,Unlimited,SBD,M,
Boys,89.81,3,Chance Gray,Borger,87.18,206.38,145.15,176.9,528.44,Unlimited,SBD,M,
Boys,89.81,4,Mason Larkin,Vega,82.46,149.69,83.91,154.22,387.82,Unlimited,SBD,M,
Boys,89.81,5,Easton Farmer,Borger,84.82,149.69,77.11,124.74,351.53,Unlimited,SBD,M,
Boys,89.81,DQ,Brixton Sells,Borger,87.63,88.45,,,,Unlimited,SBD,M,
Boys,99.79,1,Clay Wagner,Panhandle,96.16,208.65,142.88,185.97,537.51,Unlimited,SBD,M,
Boys,99.79,2,Dusty Medina,Panhandle,93.35,192.78,117.93,201.85,512.56,Unlimited,SBD,M,
Boys,99.79,3,Matthew Burch,Amarillo Highland Park,95.25,190.51,131.54,183.7,505.76,Unlimited,SBD,M,
Boys,99.79,4,Xathan Chasco,Tulia,95.71,176.9,113.4,206.38,496.68,Unlimited,SBD,M,
Boys,99.79,5,Roberto Garcia,Tulia,97.16,183.7,129.27,181.44,494.42,Unlimited,SBD,M,
Boys,99.79,6,Luis Sosa #2,Amarillo Highland Park,97.34,188.24,102.06,151.95,442.25,Unlimited,SBD,M,
Boys,99.79,7,Chris Cortez,Amarillo Highland Park,98.7,167.83,99.79,163.29,430.91,Unlimited,SBD,M,
Boys,99.79,8,Timothy Steinbaugh,Tulia,98.34,142.88,104.33,136.08,383.29,Unlimited,SBD,M,
Boys,99.79,DQ,David Castro,Dalhart,99.43,215.46,,,,Unlimited,SBD,M,
Boys,109.77,1,Isaiah Padilla,Borger,109.36,251.74,192.78,208.65,653.17,Unlimited,SBD,M,
Boys,109.77,2,Kaleb Lucas,Amarillo Highland Park,108.23,204.12,120.2,204.12,528.44,Unlimited,SBD,M,
Boys,109.77,3,Hayden Gardner,Amarillo Highland Park,108.41,192.78,102.06,188.24,483.08,Unlimited,SBD,M,
Boys,109.77,4,Damian Murrieta,Dalhart,107.23,158.76,117.93,167.83,444.52,Unlimited,SBD,M,
Boys,109.77,DQ,Blake Rodriquez,Borger,104.87,179.17,,,,Unlimited,SBD,M,
Boys,124.74,1,Drew Fisher,Dalhart,118.93,199.58,145.15,179.17,523.9,Unlimited,SBD,M,
Boys,124.74,2,Price Lemons,Tulia,115.67,52.16,61.23,79.38,192.78,Unlimited,SBD,M,
Boys,124.74,DQ,Jacinto Briones,Tulia,122.47,,,,,Unlimited,SBD,M,
Boys,124.74,DQ,Maverick Lopez,Borger,114.85,,,,,Unlimited,SBD,M,
Boys,139.71,1,Antony Hoang,Amarillo Highland Park,125.65,226.8,142.88,199.58,569.26,Unlimited,SBD,M,
Boys,139.71,2,Brandon Trujillo,Vega,130.54,154.22,95.25,154.22,403.7,Unlimited,SBD,M,
Boys,139.71+,1,Ben Turner,Dalhart,154.49,308.44,163.29,233.6,705.34,Unlimited,SBD,M,
Boys,,NS,Ashton Mitchell,Borger,,,,,,Unlimited,SBD,M,
Boys,,NS,Hunter Reneau,Borger,,,,,,Unlimited,SBD,M,
Boys,,NS,Riley Nolan,Tulia,,,,,,Unlimited,SBD,M,
Boys,,NS,Ryan Ramirez,Tulia,,,,,,Unlimited,SBD,M,
Boys,,NS,Zach Stephens,Panhandle,,,,,,Unlimited,SBD,M,
Boys,,NS,Marcello Gaytan,Borger,,,,,,Unlimited,SBD,M,
Boys,,NS,Carlos Cardenas,Borger,,,,,,Unlimited,SBD,M,
